<?xml  version="1.0" encoding="UTF-8"?>
<!DOCTYPE svg PUBLIC "-//W3C//DTD SVG 1.0//EN" "http://www.w3.org/TR/2001/REC-SVG-20010904/DTD/svg10.dtd" >
<svg xmlns="http://www.w3.org/2000/svg" >
<metadata>
<version>1.0</version>
<id><![CDATA[Futura BT W01 Cd X Black Italic]]></id>
<vendor>Monotype Imaging Inc.</vendor>
<credits>
<name>Fonts.com WebFonts</name>
<URL>http://webfonts.fonts.com</URL>
<role>Home of the Web fonts</role>
</credits>
<license>
<URL>http://webfonts.fonts.com/Legal</URL>
</license>
<copyright><![CDATA[Copyright 1990-2003 Bitstream Inc. All rights reserved.]]></copyright>
<trademark></trademark>
<licensee>
<name></name>
</licensee>
</metadata>
<defs >
<font horiz-adv-x="1025" id="2448b7c0-a87b-4af3-9190-42fec14b859e">
<font-face font-family="Futura BT W01 Cd X Black Italic" panose-1="2 11 8 6 2 2 4 9 2 4" ascent="1974" descent="-483" units-per-em="2048" alphabetic="0">
</font-face>
<missing-glyph horiz-adv-x="0" />

<glyph unicode="&#xA;" />
<glyph unicode="&#xD;" horiz-adv-x="0" />
<glyph unicode=" " horiz-adv-x="502" />
<glyph unicode="!" horiz-adv-x="606" d="M424 236Q424 125 356 50T186 -25Q107 -25 60 25T12 160Q12 271 80 346T250 422Q328 422 376 371T424 236ZM233 1536H627L449 551H102L233 1536Z"  />
<glyph unicode="&quot;" horiz-adv-x="713" d="M76 1438H295V877H76V1438ZM416 1438H639V877H416V1438Z"  />
<glyph unicode="#" horiz-adv-x="1575" d="M684 1466H934L795 1073H1030L1171 1466H1421L1282 1073H1552L1466 842H1198L1118 612H1395L1311 381H1036L895 -12H645L784 381H549L408 -12H158L297 381H23L109 612H379L461 842H178L264 1073H543L684 1466ZM707 842L625 610H870L952 842H707Z"  />
<glyph unicode="$" horiz-adv-x="1006" d="M66 436Q138 384 220 354T371 324Q431 324 464 352T498 432Q498 510 376 611Q359 625 350 633Q235 728 182 821T129 1022Q129 1185 227 1305T485 1454L520 1665H768L737 1460Q832 1444 898 1421T1016 1364L891 1057Q823 1104 766 1125T653 1147Q594 1147 558 1120T522 1049Q522 992 639 894Q666 872 680 860Q788 768 834 679T881 475Q881 297 792 175T541 10L502 -229H252L287 -12Q171 -4 78 25T-63 94L66 436Z"  />
<glyph unicode="%" horiz-adv-x="1503" d="M451 1300Q404 1300 373 1201T342 958Q342 929 354 913T387 897Q434 897 466 996T498 1231Q498 1266 486 1283T451 1300ZM1122 1489H1311L381 -29H193L1122 1489ZM764 274Q764 493 864 622T1133 752Q1260 752 1331 673T1403 455Q1403 233 1306 103T1044 -27Q911 -27 838 52T764 274ZM1116 569Q1069 569 1038 469T1006 227Q1006 199 1018 184T1053 168Q1078 168 1094 187T1124 251Q1140 305 1150 377T1161 500Q1161 535 1150 552T1116 569ZM98 1004Q98 1222 198 1351T467 1481Q594 1481 664 1403T735 1184Q735 961 640 833T379 705Q245 705 172 783T98 1004Z"  />
<glyph unicode="&amp;" horiz-adv-x="1284" d="M780 0L748 78Q650 22 560 -4T375 -31Q197 -31 102 60T6 319Q6 464 89 593T344 846Q308 924 290 991T272 1114Q272 1288 386 1386T702 1485Q863 1485 960 1399T1057 1171Q1057 1072 997 987T799 805L911 586Q949 615 982 649T1047 725L1186 442Q1142 395 1111 364T1051 307L1206 0H780ZM674 1018Q719 1054 745 1094T772 1165Q772 1201 754 1219T698 1237Q659 1237 636 1215T612 1155Q612 1127 626 1096T674 1018ZM475 573Q423 529 398 491T373 416Q373 373 399 345T467 317Q493 317 522 329T586 367L475 573Z"  />
<glyph unicode="&apos;" horiz-adv-x="371" d="M76 1438H295V877H76V1438Z"  />
<glyph unicode="(" horiz-adv-x="678" d="M254 -338Q148 -176 95 8T41 397Q41 709 174 1016T557 1581L766 1430Q568 1192 464 937T360 432Q360 262 397 110T510 -186L254 -338Z"  />
<glyph unicode=")" horiz-adv-x="678" d="M86 -338L-123 -186Q76 52 180 306T285 809Q285 979 248 1132T133 1430L391 1581Q496 1420 549 1239T602 862Q602 537 471 232T86 -338Z"  />
<glyph unicode="*" horiz-adv-x="948" d="M436 752V961L256 858L172 1001L352 1106L172 1210L256 1356L434 1251V1460H604V1251L782 1356L866 1210L686 1106L866 1001L782 858L604 961V752H436Z"  />
<glyph unicode="+" horiz-adv-x="1706" d="M735 1221H973V727H1452V496H973V0H735V496H254V727H735V1221Z"  />
<glyph unicode="&#x2c;" horiz-adv-x="506" d="M-186 -340L27 379H410L29 -340H-186Z"  />
<glyph unicode="-" horiz-adv-x="721" d="M12 346L66 678H639L586 346H12Z"  />
<glyph unicode="." horiz-adv-x="502" d="M383 240Q383 128 313 51T139 -27Q60 -27 12 25T-37 164Q-37 279 31 355T205 432Q285 432 334 380T383 240Z"  />
<glyph unicode="/" horiz-adv-x="739" d="M-172 -190L641 1489H817L2 -190H-172Z"  />
<glyph unicode="0" horiz-adv-x="1006" d="M403 -33Q218 -33 118 99T18 477Q18 710 81 932T246 1290Q315 1384 407 1434T600 1485Q787 1485 886 1352T985 969Q985 737 923 520T756 162Q688 70 595 19T403 -33ZM371 416Q371 361 384 334T426 307Q458 307 486 351T543 494Q584 635 608 786T633 1036Q633 1091 619 1119T575 1147Q542 1147 516 1104T461 961Q419 815 395 665T371 416Z"  />
<glyph unicode="1" horiz-adv-x="1006" d="M217 0L393 1120H260L313 1460H829L598 0H217Z"  />
<glyph unicode="2" horiz-adv-x="1006" d="M-125 0Q269 461 439 717T610 1100Q610 1142 588 1165T524 1188Q465 1188 430 1117T395 924H53Q64 1202 193 1345T563 1489Q773 1489 889 1394T1006 1126Q1006 987 903 804T563 346H858L803 0H-125Z"  />
<glyph unicode="3" horiz-adv-x="1006" d="M-29 451L328 450Q325 430 324 410T322 371Q322 328 340 304T389 279Q446 279 480 332T514 475Q514 542 477 577T369 612Q355 612 341 612T309 610L352 882Q360 882 370 882T401 881Q506 881 558 936T610 1102Q610 1145 592 1167T539 1190Q499 1190 471 1155T430 1055H92Q103 1263 231 1376T584 1489Q771 1489 881 1395T991 1145Q991 1002 910 897T694 762Q801 748 862 673T924 481Q924 245 784 108T397 -29Q189 -29 74 67T-41 336Q-41 362 -38 391T-29 451Z"  />
<glyph unicode="4" horiz-adv-x="1006" d="M422 0L467 297H-41L8 602L530 1460H997L860 594H963L915 297H813L766 0H422ZM514 594L592 1085L309 594H514Z"  />
<glyph unicode="5" horiz-adv-x="1006" d="M2 408Q77 359 153 334T301 309Q399 309 454 360T510 502Q510 587 450 630T268 674Q221 674 166 664T45 633L303 1460H1030L981 1139H526L459 930Q494 937 525 940T586 944Q750 944 843 849T936 586Q936 310 768 141T319 -29Q207 -29 104 -5T-109 70L2 408Z"  />
<glyph unicode="6" horiz-adv-x="1006" d="M539 948Q573 964 606 971T674 979Q810 979 884 887T958 625Q958 345 806 157T424 -31Q224 -31 109 85T-6 403Q-6 618 126 886T514 1460H948Q832 1342 730 1215T539 948ZM375 395Q375 346 391 323T440 299Q495 299 531 382T567 594Q567 643 551 667T502 692Q445 692 410 609T375 395Z"  />
<glyph unicode="7" horiz-adv-x="1006" d="M16 0L618 1120H162L215 1460H1112L469 0H16Z"  />
<glyph unicode="8" horiz-adv-x="1006" d="M528 874Q574 874 605 941T637 1104Q637 1163 620 1188T565 1214Q519 1214 487 1147T455 983Q455 927 472 901T528 874ZM434 256Q484 256 517 332T551 524Q551 573 534 598T481 623Q432 623 399 547T365 356Q365 307 382 282T434 256ZM745 778Q839 735 886 653T934 453Q934 239 793 105T428 -29Q219 -29 102 74T-16 358Q-16 508 62 620T274 778Q190 826 147 900T104 1073Q104 1259 237 1374T588 1489Q783 1489 891 1394T999 1126Q999 1009 931 915T745 778Z"  />
<glyph unicode="9" horiz-adv-x="1006" d="M473 512Q436 495 403 487T338 479Q203 479 129 572T55 836Q55 1114 207 1302T590 1491Q789 1491 903 1375T1018 1057Q1018 841 886 572T500 0H63Q180 118 282 245T473 512ZM573 1161Q517 1161 482 1079T446 866Q446 817 462 793T510 768Q567 768 603 851T639 1063Q639 1110 622 1135T573 1161Z"  />
<glyph unicode=":" horiz-adv-x="606" d="M430 240Q430 128 360 51T186 -27Q107 -27 59 25T10 164Q10 278 79 355T252 432Q332 432 381 380T430 240ZM524 831Q524 719 455 642T281 565Q201 565 152 617T102 756Q102 870 172 947T346 1024Q426 1024 475 972T524 831Z"  />
<glyph unicode=";" horiz-adv-x="606" d="M545 831Q545 718 476 642T303 565Q223 565 174 617T125 756Q125 870 194 947T369 1024Q448 1024 496 972T545 831ZM-176 -340L37 379H420L39 -340H-176Z"  />
<glyph unicode="&lt;" horiz-adv-x="1706" d="M1442 1214V961L588 610L1442 262V8L264 494V727L1442 1214Z"  />
<glyph unicode="=" horiz-adv-x="1706" d="M254 950H1452V719H254V950ZM254 502H1452V272H254V502Z"  />
<glyph unicode="&gt;" horiz-adv-x="1706" d="M264 1214L1442 727V494L264 8V262L1118 610L264 961V1214Z"  />
<glyph unicode="?" horiz-adv-x="1020" d="M600 233Q600 122 533 48T362 -27Q284 -27 236 24T188 160Q188 271 256 346T426 422Q505 422 552 371T600 233ZM285 553L344 918Q365 913 384 911T424 909Q525 909 587 981T649 1167Q649 1228 629 1258T569 1288Q523 1288 493 1244T446 1106H104Q126 1331 259 1456T610 1581Q815 1581 925 1480T1036 1192Q1036 1021 936 895T686 756L633 553H285Z"  />
<glyph unicode="@" horiz-adv-x="2048" d="M1198 696Q1189 772 1148 812T1038 852Q935 852 857 731T778 444Q778 361 813 316T911 270Q995 270 1059 329T1147 487L1198 696ZM1161 262Q1105 180 1035 142T866 104Q703 104 619 191T535 449Q535 690 676 853T1026 1016Q1103 1016 1160 986T1255 893L1307 985H1513L1360 375Q1360 373 1359 369Q1356 351 1356 342Q1356 312 1372 298T1419 283Q1556 283 1659 426T1763 762Q1763 1001 1584 1152T1116 1303Q968 1303 842 1267T612 1157Q457 1047 373 883T289 526Q289 224 492 45T1036 -135Q1200 -135 1352 -88T1632 51L1729 -84Q1573 -201 1400 -259T1036 -317Q844 -317 682 -268T393 -123Q236 -1 159 158T82 520Q82 689 135 840T291 1118Q439 1301 650 1396T1118 1491Q1288 1491 1438 1445T1698 1313Q1834 1206 1901 1070T1968 764Q1968 597 1903 457T1712 217Q1643 161 1558 132T1382 102Q1276 102 1221 142T1161 262Z"  />
<glyph unicode="A" horiz-adv-x="1053" d="M410 510H573L578 1051L410 510ZM-158 0L391 1460H872L975 0H563L565 215H324L260 0H-158Z"  />
<glyph unicode="B" horiz-adv-x="1114" d="M510 897Q518 896 527 896T555 895Q623 895 662 933T702 1038Q702 1094 671 1122T578 1151Q573 1151 564 1150T551 1149L510 897ZM420 305Q430 303 441 302T469 301Q541 301 578 349T616 487Q616 556 582 590T479 625H467L420 305ZM-31 0L201 1460H578Q852 1460 972 1381T1092 1124Q1092 980 1014 891T780 768Q895 736 957 655T1020 459Q1020 356 977 265T856 111Q784 52 687 26T426 0H-31Z"  />
<glyph unicode="C" horiz-adv-x="887" d="M907 1085Q871 1104 839 1112T774 1120Q631 1120 544 984T457 621Q457 476 509 406T670 336Q696 336 726 341T791 358L729 6Q687 -11 638 -19T526 -27Q279 -27 149 117T18 535Q18 964 216 1225T741 1487Q801 1487 858 1477T971 1446L907 1085Z"  />
<glyph unicode="D" horiz-adv-x="1114" d="M437 360Q441 359 445 359T459 358Q495 358 527 375T582 422Q618 470 651 617T684 911Q684 1006 654 1050T555 1100L437 360ZM-31 0L201 1460H510Q802 1460 940 1324T1079 903Q1079 683 1011 479T834 164Q746 75 632 38T276 0H-31Z"  />
<glyph unicode="E" horiz-adv-x="864" d="M-33 0L199 1460H922L866 1106H551L520 920H805L752 578H467L434 377H750L690 0H-33Z"  />
<glyph unicode="F" horiz-adv-x="827" d="M-35 0L197 1460H920L864 1106H547L514 895H788L735 551H459L371 0H-35Z"  />
<glyph unicode="G" horiz-adv-x="1151" d="M600 844H1122Q1105 400 952 186T500 -29Q268 -29 147 113T25 526Q25 737 75 928T217 1253Q296 1370 415 1429T688 1489Q880 1489 1000 1400T1153 1143L778 1004Q762 1073 737 1100T666 1128Q619 1128 584 1095T524 993Q490 896 464 744T438 481Q438 397 461 363T541 328Q610 328 651 387T700 555H561L600 844Z"  />
<glyph unicode="H" horiz-adv-x="1151" d="M-31 0L201 1460H608L524 932H692L774 1460H1182L950 0H543L633 571H467L377 0H-31Z"  />
<glyph unicode="I" horiz-adv-x="602" d="M-18 0L213 1460H621L389 0H-18Z"  />
<glyph unicode="J" horiz-adv-x="758" d="M381 1460H788L629 453Q587 190 485 81T186 -29Q114 -29 47 -14T-90 35L-35 385Q10 358 43 346T104 334Q158 334 185 368T229 504L381 1460Z"  />
<glyph unicode="K" horiz-adv-x="1126" d="M-31 0L201 1460H608L512 850L834 1460H1249L844 786L1028 0H586L483 664L377 0H-31Z"  />
<glyph unicode="L" horiz-adv-x="825" d="M-33 0L199 1460H608L434 362H733L676 0H-33Z"  />
<glyph unicode="M" horiz-adv-x="1503" d="M485 1083L279 0H-72L264 1460H741L745 690L993 1460H1468L1343 0H991L1124 1081L778 0H502L485 1083Z"  />
<glyph unicode="N" horiz-adv-x="1202" d="M-12 0L221 1460H598L729 676L866 1460H1208L979 0H604L465 756L336 0H-12Z"  />
<glyph unicode="O" horiz-adv-x="1161" d="M479 -29Q272 -29 146 121T20 520Q20 723 72 915T215 1237Q303 1363 418 1425T682 1487Q893 1487 1017 1340T1141 938Q1141 734 1089 544T946 221Q861 96 745 34T479 -29ZM430 487Q430 405 452 368T522 330Q565 330 596 364T653 473Q686 570 706 707T727 969Q727 1051 706 1089T641 1128Q594 1128 562 1095T506 987Q473 886 452 747T430 487Z"  />
<glyph unicode="P" horiz-adv-x="1100" d="M-31 0L201 1460H551Q844 1460 974 1364T1104 1051Q1104 778 950 632T508 485Q499 485 481 486T453 487L377 0H-31ZM557 1137L506 814Q514 812 523 812T545 811Q632 811 675 863T719 1020Q719 1078 683 1107T578 1137H557Z"  />
<glyph unicode="Q" horiz-adv-x="1161" d="M430 487Q430 405 452 368T522 330Q565 330 596 364T653 473Q686 570 706 707T727 969Q727 1051 706 1089T641 1128Q594 1128 562 1095T506 987Q473 886 452 747T430 487ZM508 -29Q279 -29 150 116T20 520Q20 723 72 914T215 1237Q303 1363 418 1425T682 1487Q893 1487 1017 1339T1141 936Q1141 668 1058 440T838 100L977 -70L635 -242L508 -29Z"  />
<glyph unicode="R" horiz-adv-x="1104" d="M-31 0L201 1460H545Q869 1460 991 1375T1114 1085Q1114 906 1037 791T813 639L993 0H561L469 590L377 0H-31ZM506 809H528Q621 809 671 867T721 1036Q721 1099 689 1129T590 1159Q586 1159 577 1158T561 1157L506 809Z"  />
<glyph unicode="S" horiz-adv-x="891" d="M-4 449Q64 392 139 361T283 330Q344 330 380 363T416 455Q416 505 386 554T270 686Q166 787 127 864T88 1034Q88 1243 220 1366T580 1489Q672 1489 755 1469T924 1405L866 1049Q800 1095 738 1119T618 1143Q567 1143 538 1117T508 1044Q508 982 621 870Q635 856 643 848Q757 736 793 656T829 471Q829 237 685 102T289 -33Q182 -33 87 -8T-74 63L-4 449Z"  />
<glyph unicode="T" horiz-adv-x="963" d="M557 0H147L319 1090H76L135 1460H1030L971 1090H729L557 0Z"  />
<glyph unicode="U" horiz-adv-x="1151" d="M41 522L188 1460H598L442 483Q440 471 439 461T438 438Q438 401 459 380T518 358Q566 358 593 389T631 483L786 1460H1194L1045 523L1042 508Q999 242 911 137Q841 53 734 11T479 -31Q249 -31 138 65T27 360Q27 392 30 430T41 522Z"  />
<glyph unicode="V" horiz-adv-x="1090" d="M102 1460H508L510 506L813 1460H1219L653 0H205L102 1460Z"  />
<glyph unicode="W" horiz-adv-x="1565" d="M98 1460H504L465 596L733 1460H1061L1057 596L1290 1460H1696L1182 0H807L811 913L526 0H152L98 1460Z"  />
<glyph unicode="X" horiz-adv-x="1085" d="M324 739L129 1460H551L596 1073L764 1460H1188L764 739L985 0H553L487 385L301 0H-131L324 739Z"  />
<glyph unicode="Y" horiz-adv-x="1038" d="M94 1460H524L565 1012L745 1460H1176L700 586L608 0H201L295 586L94 1460Z"  />
<glyph unicode="Z" horiz-adv-x="977" d="M-137 0L492 1094H111L170 1460H1114L492 375H881L821 0H-137Z"  />
<glyph unicode="[" horiz-adv-x="678" d="M-2 -305L293 1559H748L709 1313H528L311 -61H492L453 -305H-2Z"  />
<glyph unicode="\" horiz-adv-x="739" d="M602 -190H440L160 1489H319L602 -190Z"  />
<glyph unicode="]" horiz-adv-x="678" d="M352 -305H-102L-63 -61H117L334 1313H154L193 1559H647L352 -305Z"  />
<glyph unicode="^" horiz-adv-x="2048" d="M879 1462H1167L1632 899H1368L1024 1241L678 899H414L879 1462Z"  />
<glyph unicode="_" horiz-adv-x="1024" d="M0 -244H1024V-483H0V-244Z"  />
<glyph unicode="`" horiz-adv-x="1024" d="M539 1163L416 1475H678L698 1163H539Z"  />
<glyph unicode="a" horiz-adv-x="1057" d="M504 0L520 113Q453 39 390 5T256 -29Q135 -29 68 65T0 328Q0 638 123 845T428 1053Q499 1053 551 1020T647 913L666 1024H1034L872 0H504ZM520 733Q464 733 424 639T383 414Q383 355 400 324T451 293Q506 293 546 388T586 616Q586 674 570 703T520 733Z"  />
<glyph unicode="b" horiz-adv-x="1049" d="M397 408Q397 347 415 317T471 287Q528 287 566 381T604 616Q604 677 586 706T530 735Q474 735 436 641T397 408ZM-47 0L205 1593H573L467 911Q531 983 594 1017T729 1051Q851 1051 919 958T987 696Q987 386 865 180T559 -27Q488 -27 436 6T340 113L322 0H-47Z"  />
<glyph unicode="c" horiz-adv-x="707" d="M549 8Q498 -10 448 -19T348 -29Q181 -29 89 73T-4 360Q-4 673 141 863T524 1053Q569 1053 615 1043T707 1012L657 698Q636 712 615 718T569 725Q504 725 460 646T416 446Q416 376 439 345T514 313Q534 313 556 319T600 336L549 8Z"  />
<glyph unicode="d" horiz-adv-x="1049" d="M504 0L520 113Q453 39 391 6T258 -27Q136 -27 68 66T0 328Q0 638 123 844T428 1051Q499 1051 551 1018T647 911L756 1593H1124L872 0H504ZM592 618Q592 679 574 709T518 739Q463 739 424 645T385 410Q385 348 402 320T457 291Q513 291 552 386T592 618Z"  />
<glyph unicode="e" horiz-adv-x="991" d="M391 641H610Q613 674 613 688T614 715Q614 764 593 789T528 815Q473 815 441 774T391 641ZM874 358Q859 175 742 72T432 -31Q222 -31 112 84T2 418Q2 707 141 880T514 1053Q703 1053 813 953T924 680Q924 636 920 585T907 469H365Q359 421 357 393T354 348Q354 295 378 270T451 244Q503 244 531 272T563 358H874Z"  />
<glyph unicode="f" horiz-adv-x="635" d="M0 0L109 696H-2L49 1024H162L193 1223Q226 1429 316 1520T573 1612Q626 1612 674 1604T768 1579L717 1270Q699 1276 688 1278T666 1280Q621 1280 595 1249T557 1153L535 1024H678L627 696H483L373 0H0Z"  />
<glyph unicode="g" horiz-adv-x="1010" d="M627 1026H979L823 47Q784 -200 678 -285T326 -371Q128 -371 38 -299T-53 -72Q-53 -66 -52 -54T-51 -35H260V-55Q260 -86 282 -105T340 -125Q388 -125 417 -92T457 10L483 180Q434 115 373 82T242 49Q126 49 61 137T-4 383Q-4 672 111 862T399 1053Q467 1053 515 1023T608 924L627 1026ZM502 760Q448 760 410 670T371 453Q371 394 386 366T434 338Q487 338 525 428T563 645Q563 702 548 731T502 760Z"  />
<glyph unicode="h" horiz-adv-x="1006" d="M-47 0L205 1593H573L465 918Q512 979 571 1010T696 1042Q815 1042 879 982T944 811Q944 785 941 752T930 668L825 0H455L551 604Q551 608 552 616Q555 636 555 639Q555 668 539 684T494 700Q464 700 445 675T418 600L322 0H-47Z"  />
<glyph unicode="i" horiz-adv-x="537" d="M573 1413Q573 1304 508 1232T342 1159Q265 1159 219 1209T172 1341Q172 1451 238 1524T403 1597Q481 1597 527 1547T573 1413ZM-33 0L129 1024H500L338 0H-33Z"  />
<glyph unicode="j" horiz-adv-x="537" d="M-90 -350L129 1024H500L283 -350H-90ZM573 1413Q573 1304 508 1232T342 1159Q265 1159 219 1209T172 1341Q172 1451 238 1524T403 1597Q481 1597 527 1547T573 1413Z"  />
<glyph unicode="k" horiz-adv-x="1012" d="M-45 0L209 1593H578L420 590L659 1024H1038L745 573L913 0H514L408 510L326 0H-45Z"  />
<glyph unicode="l" horiz-adv-x="537" d="M-33 0L219 1593H590L338 0H-33Z"  />
<glyph unicode="m" horiz-adv-x="1507" d="M-47 0L115 1024H449L432 918Q486 979 552 1010T694 1042Q797 1042 857 997T928 869Q971 953 1040 997T1196 1042Q1315 1042 1380 982T1446 811Q1446 779 1443 744T1434 668L1327 0H956L1053 604Q1053 608 1054 616Q1057 636 1057 639Q1057 668 1041 684T997 700Q967 700 947 675T920 600L825 0H455L551 604Q551 608 552 616Q555 636 555 639Q555 667 540 683T500 700Q465 700 446 676T418 601L322 0H-47Z"  />
<glyph unicode="n" horiz-adv-x="1006" d="M-47 0L115 1024H449L432 918Q486 979 552 1010T694 1042Q813 1042 878 982T944 811Q944 785 941 752T930 668L825 0H455L551 604Q551 608 552 616Q555 636 555 639Q555 668 539 684T494 700Q464 700 445 675T418 600L322 0H-47Z"  />
<glyph unicode="o" horiz-adv-x="999" d="M442 -31Q227 -31 115 83T2 416Q2 706 136 879T498 1053Q713 1053 824 940T936 606Q936 315 803 142T442 -31ZM371 391Q371 335 387 307T434 279Q487 279 527 383T567 631Q567 688 551 715T502 743Q450 743 411 638T371 391Z"  />
<glyph unicode="p" horiz-adv-x="1049" d="M397 408Q397 347 415 317T471 287Q528 287 566 381T604 616Q604 677 586 706T530 735Q474 735 436 641T397 408ZM-104 -350L113 1024H446L430 918Q502 986 572 1019T715 1053Q847 1053 917 958T987 684Q987 383 866 177T569 -29Q494 -29 433 -4T330 70L264 -350H-104Z"  />
<glyph unicode="q" horiz-adv-x="1049" d="M383 408Q383 347 401 317T457 287Q513 287 551 381T590 616Q590 678 573 706T518 735Q462 735 423 641T383 408ZM817 -352H449L520 111Q452 36 389 3T256 -31Q134 -31 67 62T0 326Q0 639 122 846T428 1053Q498 1053 550 1019T647 911L666 1024H1034L817 -352Z"  />
<glyph unicode="r" horiz-adv-x="717" d="M-49 0L113 1024H463L440 881Q502 960 578 1002T745 1053L688 692H680Q544 692 481 641T397 457L326 0H-49Z"  />
<glyph unicode="s" horiz-adv-x="801" d="M49 360Q108 306 165 278T272 250Q309 250 330 266T352 311Q352 357 265 411Q247 422 238 428Q135 495 91 559T47 707Q47 860 154 956T434 1053Q510 1053 586 1034T727 979L664 707Q611 748 566 768T479 788Q442 788 420 771T397 727Q397 694 458 652Q481 636 493 627Q623 531 659 469T696 324Q696 166 587 70T295 -27Q205 -27 114 1T-57 82L49 360Z"  />
<glyph unicode="t" horiz-adv-x="639" d="M14 0L125 700H0L51 1024H176L223 1325H596L549 1024H682L631 700H498L385 0H14Z"  />
<glyph unicode="u" horiz-adv-x="1008" d="M106 1024H477L375 375Q374 372 374 368T373 356Q373 328 389 313T434 297Q467 297 490 318T520 375L623 1024H993L895 410Q861 191 733 81T383 -29Q202 -29 100 53T-2 281Q-2 310 1 342T10 410L106 1024Z"  />
<glyph unicode="v" horiz-adv-x="934" d="M25 1024H393L414 399L633 1024H1001L549 0H154L25 1024Z"  />
<glyph unicode="w" horiz-adv-x="1341" d="M33 1024H375V391L565 1024H868L858 391L1059 1024H1401L985 0H655L649 600L453 0H123L33 1024Z"  />
<glyph unicode="x" horiz-adv-x="901" d="M223 537L37 1024H397L461 791L596 1024H956L616 537L819 0H459L377 264L211 0H-150L223 537Z"  />
<glyph unicode="y" horiz-adv-x="934" d="M-23 -350L164 20L14 1024H399L422 465L639 1024H1014L328 -350H-23Z"  />
<glyph unicode="z" horiz-adv-x="864" d="M-145 0L305 700H41L92 1024H893L457 338H756L702 0H-145Z"  />
<glyph unicode="{" horiz-adv-x="1024" d="M893 1477V1235Q886 1235 872 1236T852 1237Q754 1237 720 1202T686 1055V815Q686 675 640 615T475 530Q595 506 640 448T686 248V6Q686 -104 719 -139T850 -174Q857 -174 871 -173T893 -172V-414Q878 -414 851 -415T811 -416Q703 -416 632 -404T512 -367Q453 -335 430 -279T406 -86V170Q406 303 357 357T188 412Q184 412 171 411T152 410V651Q158 651 170 650T188 649Q306 649 356 704T406 893V1147Q406 1283 430 1340T512 1430Q560 1455 632 1467T813 1479Q825 1479 851 1478T893 1477Z"  />
<glyph unicode="|" horiz-adv-x="1024" d="M393 1565H633V-483H393V1565Z"  />
<glyph unicode="}" horiz-adv-x="1024" d="M133 1477Q148 1477 174 1478T213 1479Q321 1479 393 1467T514 1430Q572 1398 596 1341T621 1147V893Q621 759 670 704T838 649Q844 649 856 650T874 651V410Q868 410 856 411T838 412Q719 412 670 357T621 170V-86Q621 -223 597 -280T514 -369Q469 -393 401 -404T223 -416Q209 -416 179 -415T133 -414V-172Q142 -172 156 -173T176 -174Q273 -174 306 -140T340 6V248Q340 388 386 447T551 530Q431 555 386 614T340 815V1055Q340 1166 307 1201T180 1237Q173 1237 158 1236T133 1235V1477Z"  />
<glyph unicode="~" horiz-adv-x="1706" d="M1530 819V565Q1429 496 1336 462T1153 428Q1108 428 1064 435T981 457Q968 461 943 470Q688 559 561 559Q477 559 386 522T178 401V655Q290 728 385 763T565 799Q628 799 691 787T861 741Q877 736 912 724Q1071 668 1159 668Q1243 668 1332 704T1530 819Z"  />
<glyph unicode="&#xA0;" horiz-adv-x="1006" />
<glyph unicode="&#xA1;" horiz-adv-x="606" d="M600 1380Q600 1270 532 1195T362 1120Q284 1120 236 1171T188 1307Q188 1418 256 1493T426 1569Q504 1569 552 1517T600 1380ZM385 0H-8L172 985H516L385 0Z"  />
<glyph unicode="&#xA2;" horiz-adv-x="1006" d="M707 231Q669 211 632 200T553 186L535 59H358L381 205Q269 246 212 343T154 590Q154 838 267 1030T549 1262L569 1395H745L725 1274Q762 1271 797 1261T864 1233L815 918Q796 930 777 936T737 942Q664 942 617 862T569 659Q569 597 595 565T672 532Q689 533 708 537T758 553L707 231Z"  />
<glyph unicode="&#xA3;" horiz-adv-x="1006" d="M840 586H637Q621 505 589 445T498 332Q541 323 578 318T643 313Q720 313 789 328T930 375L952 74Q889 31 808 10T625 -12Q521 -12 381 19T197 51Q153 51 107 35T2 -18L-47 268Q8 307 65 325T190 344Q222 380 241 432T260 537Q260 555 260 566T258 585L41 586L80 825H223Q206 875 197 921T188 1012Q188 1222 337 1355T723 1489Q853 1489 957 1440T1114 1305L864 1077Q836 1130 799 1156T715 1182Q655 1182 624 1149T592 1055Q592 1009 612 933T637 826L877 825L840 586Z"  />
<glyph unicode="&#xA4;" horiz-adv-x="1006" d="M1069 1448L1010 1118Q977 1133 947 1140T885 1147Q788 1147 712 1086T592 913H944L899 797H558Q552 771 548 739T543 670H852L807 553H543Q552 422 607 365T776 307Q799 307 825 311T881 324L823 -4Q784 -19 738 -26T629 -33Q382 -33 251 110T119 522V553H-25L20 670H125Q130 723 133 749T141 796L14 797L59 913H168Q245 1184 424 1334T850 1485Q908 1485 962 1476T1069 1448Z"  />
<glyph unicode="&#xA5;" horiz-adv-x="1116" d="M262 0L356 586L346 635H18L37 752H317L291 879H57L76 995H262L156 1460H530L600 940L817 1460H1192L940 995H1124L1106 879H879L809 752H1087L1069 635H741L717 586L625 0H262Z"  />
<glyph unicode="&#xA6;" horiz-adv-x="1024" d="M393 1432H633V674H393V1432ZM393 408H633V-350H393V408Z"  />
<glyph unicode="&#xA7;" horiz-adv-x="1057" d="M334 864Q261 907 224 971T186 1120Q186 1282 304 1385T612 1489Q797 1489 893 1404T989 1153Q989 1146 988 1133T987 1112H705Q705 1124 706 1139T707 1159Q707 1211 682 1237T608 1264Q556 1264 524 1223T492 1112Q492 1025 676 952Q700 943 713 938Q843 886 903 812T963 631Q963 506 885 422T668 313Q744 273 782 209T821 55Q821 -127 697 -238T367 -350Q181 -350 85 -265T-12 -14Q-12 -7 -11 6T-10 27H272Q272 20 271 4T270 -20Q270 -73 297 -99T381 -125Q448 -125 483 -78T518 59Q518 148 353 218Q330 228 318 233Q164 300 107 370T49 547Q49 666 124 750T334 864ZM389 539Q389 485 411 458T477 430Q541 430 579 491T618 653Q618 692 595 718T537 745Q470 745 430 688T389 539Z"  />
<glyph unicode="&#xA8;" horiz-adv-x="1024" d="M307 1350Q307 1406 348 1446T446 1487Q503 1487 543 1447T584 1350Q584 1292 544 1251T446 1210Q391 1210 349 1251T307 1350ZM637 1350Q637 1406 678 1446T776 1487Q833 1487 873 1447T913 1350Q913 1292 873 1251T776 1210Q720 1210 679 1251T637 1350Z"  />
<glyph unicode="&#xA9;" horiz-adv-x="1706" d="M852 1485Q1006 1485 1141 1429T1384 1266Q1490 1160 1544 1026T1599 737Q1599 584 1545 450T1386 213Q1277 105 1139 48T852 -10Q704 -10 569 47T326 211Q219 318 163 452T106 737Q106 885 163 1022T328 1268Q433 1374 566 1429T852 1485ZM854 1350Q728 1350 619 1305T424 1171Q336 1082 289 970T242 737Q242 618 289 507T424 307Q511 220 622 174T854 127Q975 127 1088 174T1290 309Q1376 393 1420 502T1464 737Q1464 862 1419 972T1288 1169Q1200 1258 1090 1304T854 1350ZM1221 891H1008Q1001 958 961 995T852 1032Q769 1032 723 955T676 739Q676 599 723 527T862 455Q929 455 968 495T1014 610H1229Q1223 467 1122 380T858 293Q668 293 557 410T446 731Q446 938 557 1060T856 1182Q1013 1182 1113 1102T1221 891Z"  />
<glyph unicode="&#xAA;" horiz-adv-x="793" d="M379 743L391 823Q341 771 293 747T193 723Q101 723 51 788T0 973Q0 1191 92 1336T322 1481Q375 1481 414 1458T485 1382L500 1460H776L655 743H379ZM391 1257Q349 1257 318 1191T287 1032Q287 991 300 970T338 948Q379 948 409 1015T440 1176Q440 1215 428 1236T391 1257Z"  />
<glyph unicode="&#xAB;" horiz-adv-x="862" d="M397 168L205 74L25 522L344 950L506 856L238 522L397 168ZM715 168L524 74L344 522L662 950L823 856L557 522L715 168Z"  />
<glyph unicode="&#xAC;" horiz-adv-x="1706" d="M254 866H1452V365H1223V639H254V866Z"  />
<glyph unicode="&#xAD;" horiz-adv-x="721" d="M12 346L66 678H639L586 346H12Z"  />
<glyph unicode="&#xAE;" horiz-adv-x="1706" d="M852 1485Q1008 1485 1146 1428T1391 1260Q1492 1156 1545 1022T1599 737Q1599 582 1543 446T1378 207Q1269 102 1133 46T852 -10Q701 -10 565 48T322 217Q217 325 162 458T106 737Q106 888 165 1027T334 1274Q439 1378 571 1431T852 1485ZM854 1350Q730 1350 622 1306T428 1178Q338 1088 291 975T244 737Q244 616 288 508T418 313Q505 223 617 175T852 127Q973 127 1084 172T1284 303Q1372 388 1418 499T1464 737Q1464 861 1420 970T1292 1165Q1203 1256 1092 1303T854 1350ZM537 1163H866Q1040 1163 1130 1103T1221 926Q1221 845 1175 787T1047 705L1229 344H981L827 670H762V344H537V1163ZM762 1022V803H842Q916 803 952 829T989 909Q989 968 951 995T829 1022H762Z"  />
<glyph unicode="&#xAF;" horiz-adv-x="1024" d="M338 1253L367 1444H883L852 1253H338Z"  />
<glyph unicode="&#xB0;" horiz-adv-x="674" d="M338 1466Q467 1466 558 1375T649 1155Q649 1027 558 936T336 844Q207 844 117 934T27 1155Q27 1286 117 1376T338 1466ZM338 1321Q269 1321 221 1273T172 1157Q172 1087 220 1039T338 991Q406 991 454 1040T502 1157Q502 1225 454 1273T338 1321Z"  />
<glyph unicode="&#xB1;" horiz-adv-x="1706" d="M735 1241H973V922H1452V690H973V371H735V690H254V922H735V1241ZM254 213H1452V-18H254V213Z"  />
<glyph unicode="&#xB2;" horiz-adv-x="664" d="M-82 582Q177 858 290 1012T403 1241Q403 1267 389 1280T346 1294Q307 1294 284 1252T260 1137H35Q42 1303 128 1389T373 1475Q511 1475 587 1418T664 1257Q664 1173 596 1064T373 788H567L530 582H-82Z"  />
<glyph unicode="&#xB3;" horiz-adv-x="664" d="M-18 852H217Q215 843 214 833T213 805Q213 779 224 765T256 750Q295 750 317 781T340 866Q340 907 316 927T244 948H205L234 1112Q239 1111 245 1111T264 1110Q333 1110 368 1143T403 1243Q403 1269 391 1282T356 1296Q331 1296 312 1275T285 1215L61 1214Q68 1339 152 1407T385 1475Q508 1475 580 1419T653 1268Q653 1183 600 1120T459 1038Q529 1031 569 986T610 870Q610 729 517 647T262 565Q126 565 50 622T-27 782Q-27 801 -25 818T-18 852Z"  />
<glyph unicode="&#xB4;" horiz-adv-x="1024" d="M623 1163H465L584 1475H844L623 1163Z"  />
<glyph unicode="&#xB5;" horiz-adv-x="1315" d="M193 1090H551L471 561Q465 520 462 484T459 418Q459 333 494 291T602 248Q690 248 740 316T815 537L903 1090H1260L1085 0H764L782 125Q742 50 693 17T573 -16Q514 -16 467 15T389 104L307 -428H-45L193 1090Z"  />
<glyph unicode="&#xB6;" horiz-adv-x="1024" d="M997 1479V1356H891V0H715V1356H565V0H391V784Q227 790 128 885T29 1130Q29 1288 135 1383T418 1479H997Z"  />
<glyph unicode="&#xB7;" horiz-adv-x="502" d="M25 727Q25 822 91 888T252 954Q347 954 413 888T479 727Q479 632 413 566T252 500Q157 500 91 566T25 727Z"  />
<glyph unicode="&#xB8;" horiz-adv-x="1024" d="M125 -438L147 -297Q205 -319 261 -330T371 -342Q413 -342 438 -321T463 -266Q463 -238 442 -225T373 -211Q351 -211 338 -211T314 -213L346 0H467L455 -84H469Q561 -84 608 -123T655 -238Q655 -356 585 -419T383 -483Q329 -483 265 -472T125 -438Z"  />
<glyph unicode="&#xB9;" horiz-adv-x="664" d="M143 582L260 1253H172L207 1458H549L395 582H143Z"  />
<glyph unicode="&#xBA;" horiz-adv-x="750" d="M332 723Q170 723 86 802T2 1034Q2 1237 103 1359T373 1481Q534 1481 618 1401T702 1167Q702 964 602 844T332 723ZM279 1018Q279 978 290 958T326 938Q366 938 396 1011T426 1186Q426 1225 414 1244T377 1264Q338 1264 309 1190T279 1018Z"  />
<glyph unicode="&#xBB;" horiz-adv-x="862" d="M287 168L557 522L395 856L586 950L770 522L449 74L287 168ZM-31 168L240 522L78 856L268 950L453 522L129 74L-31 168Z"  />
<glyph unicode="&#xBC;" horiz-adv-x="1608" d="M135 639L248 1266H164L197 1456H522L377 639H135ZM291 -29L1126 1489H1315L479 -29H291ZM1241 0L1270 166H948L981 338L1309 817H1604L1518 332H1581L1552 166H1487L1458 0H1241ZM1298 332L1348 608L1169 332H1298Z"  />
<glyph unicode="&#xBD;" horiz-adv-x="1608" d="M135 639L248 1266H164L197 1456H522L377 639H135ZM291 -29L1126 1489H1315L479 -29H291ZM897 0Q1144 257 1252 401T1360 616Q1360 640 1346 653T1305 666Q1268 666 1247 626T1225 518H1008Q1015 673 1097 753T1329 834Q1462 834 1535 781T1608 631Q1608 552 1542 449T1329 195H1516L1481 0H897Z"  />
<glyph unicode="&#xBE;" horiz-adv-x="1610" d="M-18 891H207Q207 889 206 885Q203 859 203 846Q203 822 214 809T246 795Q281 795 302 825T324 905Q324 943 301 962T231 981H195L221 1133H252Q318 1133 351 1163T385 1255Q385 1279 374 1292T340 1305Q315 1305 297 1285T270 1229H57Q65 1346 145 1409T369 1473Q486 1473 555 1421T625 1280Q625 1201 574 1142T438 1065Q505 1057 543 1016T582 909Q582 776 494 700T250 623Q119 623 46 677T-27 827Q-27 837 -25 850T-18 891ZM291 -29L1126 1489H1315L479 -29H291ZM1241 0L1270 166H948L981 338L1309 817H1604L1518 332H1581L1552 166H1487L1458 0H1241ZM1298 332L1348 608L1169 332H1298Z"  />
<glyph unicode="&#xBF;" horiz-adv-x="1020" d="M834 1380Q834 1270 766 1195T596 1120Q517 1120 470 1171T422 1307Q422 1418 490 1493T659 1569Q737 1569 785 1517T834 1380ZM737 1004L680 639Q659 643 640 645T600 647Q498 647 437 574T375 381Q375 326 395 297T453 268Q500 268 531 313T578 451H918Q896 225 764 100T414 -25Q209 -25 98 76T-14 365Q-14 536 86 661T336 801L391 1004H737Z"  />
<glyph unicode="&#xC0;" horiz-adv-x="1053" d="M410 510H573L578 1051L410 510ZM-158 0L391 1460H872L975 0H563L565 215H324L260 0H-158ZM623 1599L500 1911H762L782 1599H623Z"  />
<glyph unicode="&#xC1;" horiz-adv-x="1053" d="M410 510H573L578 1051L410 510ZM-158 0L391 1460H872L975 0H563L565 215H324L260 0H-158ZM707 1599H549L668 1911H928L707 1599Z"  />
<glyph unicode="&#xC2;" horiz-adv-x="1053" d="M410 510H573L578 1051L410 510ZM-158 0L391 1460H872L975 0H563L565 215H324L260 0H-158ZM385 1599L586 1913H840L942 1599H776L688 1759L551 1599H385Z"  />
<glyph unicode="&#xC3;" horiz-adv-x="1053" d="M410 510H573L578 1051L410 510ZM-158 0L391 1460H872L975 0H563L565 215H324L260 0H-158ZM625 1706Q614 1710 605 1712T584 1714Q557 1714 536 1693T502 1632H408Q437 1772 488 1838T619 1904Q633 1904 646 1902T676 1894L761 1860Q774 1854 785 1852T805 1849Q835 1849 856 1871T889 1937H985Q952 1792 900 1726T766 1659Q755 1659 743 1661T717 1669L625 1706Z"  />
<glyph unicode="&#xC4;" horiz-adv-x="1053" d="M410 510H573L578 1051L410 510ZM-158 0L391 1460H872L975 0H563L565 215H324L260 0H-158ZM391 1786Q391 1842 432 1882T530 1923Q587 1923 627 1883T668 1786Q668 1728 628 1687T530 1646Q475 1646 433 1687T391 1786ZM721 1786Q721 1842 762 1882T860 1923Q917 1923 957 1883T997 1786Q997 1728 957 1687T860 1646Q804 1646 763 1687T721 1786Z"  />
<glyph unicode="&#xC5;" horiz-adv-x="1055" d="M410 510H575L578 1051L410 510ZM-137 0L426 1460H858L961 0H563L565 215H324L260 0H-137ZM573 1749Q573 1708 602 1680T672 1651Q712 1651 741 1680T770 1749Q770 1790 741 1818T672 1847Q631 1847 602 1819T573 1749ZM446 1749Q446 1843 511 1908T672 1974Q765 1974 831 1909T897 1749Q897 1655 831 1590T672 1524Q577 1524 512 1589T446 1749Z"  />
<glyph unicode="&#xC6;" horiz-adv-x="1407" d="M-133 0L416 1460H1253L1268 1106H895L907 920H1249L1264 578H928L940 377H1294L1311 0H567L569 215H328L262 0H-133ZM414 510H575L582 1051L414 510Z"  />
<glyph unicode="&#xC7;" horiz-adv-x="887" d="M907 1085Q871 1104 839 1112T774 1120Q631 1120 544 984T457 621Q457 476 509 406T670 336Q696 336 726 341T791 358L729 6Q687 -11 638 -19T526 -27Q279 -27 149 117T18 535Q18 964 216 1225T741 1487Q801 1487 858 1477T971 1446L907 1085ZM172 -438L194 -297Q252 -319 308 -330T418 -342Q460 -342 485 -321T510 -266Q510 -238 489 -225T420 -211Q398 -211 385 -211T361 -213L393 0H514L502 -84H516Q608 -84 655 -123T702 -238Q702 -356 632 -419T430 -483Q376 -483 312 -472T172 -438Z"  />
<glyph unicode="&#xC8;" horiz-adv-x="864" d="M-33 0L199 1460H922L866 1106H551L520 920H805L752 578H467L434 377H750L690 0H-33ZM536 1599L413 1911H675L695 1599H536Z"  />
<glyph unicode="&#xC9;" horiz-adv-x="864" d="M-33 0L199 1460H922L866 1106H551L520 920H805L752 578H467L434 377H750L690 0H-33ZM620 1599H462L581 1911H841L620 1599Z"  />
<glyph unicode="&#xCA;" horiz-adv-x="864" d="M-33 0L199 1460H922L866 1106H551L520 920H805L752 578H467L434 377H750L690 0H-33ZM298 1599L499 1913H753L855 1599H689L601 1759L464 1599H298Z"  />
<glyph unicode="&#xCB;" horiz-adv-x="864" d="M-33 0L199 1460H922L866 1106H551L520 920H805L752 578H467L434 377H750L690 0H-33ZM304 1786Q304 1842 345 1882T443 1923Q500 1923 540 1883T581 1786Q581 1728 541 1687T443 1646Q388 1646 346 1687T304 1786ZM634 1786Q634 1842 675 1882T773 1923Q830 1923 870 1883T910 1786Q910 1728 870 1687T773 1646Q717 1646 676 1687T634 1786Z"  />
<glyph unicode="&#xCC;" horiz-adv-x="602" d="M-18 0L213 1460H621L389 0H-18ZM399 1599L276 1911H538L558 1599H399Z"  />
<glyph unicode="&#xCD;" horiz-adv-x="602" d="M-18 0L213 1460H621L389 0H-18ZM483 1599H325L444 1911H704L483 1599Z"  />
<glyph unicode="&#xCE;" horiz-adv-x="602" d="M-18 0L213 1460H621L389 0H-18ZM161 1599L362 1913H616L718 1599H552L464 1759L327 1599H161Z"  />
<glyph unicode="&#xCF;" horiz-adv-x="602" d="M-18 0L213 1460H621L389 0H-18ZM167 1786Q167 1842 208 1882T306 1923Q363 1923 403 1883T444 1786Q444 1728 404 1687T306 1646Q251 1646 209 1687T167 1786ZM497 1786Q497 1842 538 1882T636 1923Q693 1923 733 1883T773 1786Q773 1728 733 1687T636 1646Q580 1646 539 1687T497 1786Z"  />
<glyph unicode="&#xD0;" horiz-adv-x="1141" d="M86 618H-23L20 893H129L219 1460H524Q706 1460 791 1440T946 1370Q1039 1305 1086 1198T1133 942Q1133 757 1084 582T950 283Q852 140 711 70T381 0H-12L86 618ZM473 618L433 354Q439 353 446 353T467 352Q526 352 571 378T643 453Q685 530 714 667T743 934Q743 1034 705 1078T578 1122H553L518 893H637L594 618H473Z"  />
<glyph unicode="&#xD1;" horiz-adv-x="1202" d="M-12 0L221 1460H598L729 676L866 1460H1208L979 0H604L465 756L336 0H-12ZM707 1706Q696 1710 687 1712T666 1714Q639 1714 618 1693T584 1632H490Q519 1772 570 1838T701 1904Q715 1904 728 1902T758 1894L843 1860Q856 1854 867 1852T887 1849Q917 1849 938 1871T971 1937H1067Q1034 1792 982 1726T848 1659Q837 1659 825 1661T799 1669L707 1706Z"  />
<glyph unicode="&#xD2;" horiz-adv-x="1161" d="M479 -29Q272 -29 146 121T20 520Q20 723 72 915T215 1237Q303 1363 418 1425T682 1487Q893 1487 1017 1340T1141 938Q1141 734 1089 544T946 221Q861 96 745 34T479 -29ZM430 487Q430 405 452 368T522 330Q565 330 596 364T653 473Q686 570 706 707T727 969Q727 1051 706 1089T641 1128Q594 1128 562 1095T506 987Q473 886 452 747T430 487ZM676 1599L553 1911H815L835 1599H676Z"  />
<glyph unicode="&#xD3;" horiz-adv-x="1161" d="M479 -29Q272 -29 146 121T20 520Q20 723 72 915T215 1237Q303 1363 418 1425T682 1487Q893 1487 1017 1340T1141 938Q1141 734 1089 544T946 221Q861 96 745 34T479 -29ZM430 487Q430 405 452 368T522 330Q565 330 596 364T653 473Q686 570 706 707T727 969Q727 1051 706 1089T641 1128Q594 1128 562 1095T506 987Q473 886 452 747T430 487ZM760 1599H602L721 1911H981L760 1599Z"  />
<glyph unicode="&#xD4;" horiz-adv-x="1161" d="M479 -29Q272 -29 146 121T20 520Q20 723 72 915T215 1237Q303 1363 418 1425T682 1487Q893 1487 1017 1340T1141 938Q1141 734 1089 544T946 221Q861 96 745 34T479 -29ZM430 487Q430 405 452 368T522 330Q565 330 596 364T653 473Q686 570 706 707T727 969Q727 1051 706 1089T641 1128Q594 1128 562 1095T506 987Q473 886 452 747T430 487ZM438 1599L639 1913H893L995 1599H829L741 1759L604 1599H438Z"  />
<glyph unicode="&#xD5;" horiz-adv-x="1161" d="M479 -29Q272 -29 146 121T20 520Q20 723 72 915T215 1237Q303 1363 418 1425T682 1487Q893 1487 1017 1340T1141 938Q1141 734 1089 544T946 221Q861 96 745 34T479 -29ZM430 487Q430 405 452 368T522 330Q565 330 596 364T653 473Q686 570 706 707T727 969Q727 1051 706 1089T641 1128Q594 1128 562 1095T506 987Q473 886 452 747T430 487ZM678 1706Q667 1710 658 1712T637 1714Q610 1714 589 1693T555 1632H461Q490 1772 541 1838T672 1904Q686 1904 699 1902T729 1894L814 1860Q827 1854 838 1852T858 1849Q888 1849 909 1871T942 1937H1038Q1005 1792 953 1726T819 1659Q808 1659 796 1661T770 1669L678 1706Z"  />
<glyph unicode="&#xD6;" horiz-adv-x="1161" d="M479 -29Q272 -29 146 121T20 520Q20 723 72 915T215 1237Q303 1363 418 1425T682 1487Q893 1487 1017 1340T1141 938Q1141 734 1089 544T946 221Q861 96 745 34T479 -29ZM430 487Q430 405 452 368T522 330Q565 330 596 364T653 473Q686 570 706 707T727 969Q727 1051 706 1089T641 1128Q594 1128 562 1095T506 987Q473 886 452 747T430 487ZM444 1786Q444 1842 485 1882T583 1923Q640 1923 680 1883T721 1786Q721 1728 681 1687T583 1646Q528 1646 486 1687T444 1786ZM774 1786Q774 1842 815 1882T913 1923Q970 1923 1010 1883T1050 1786Q1050 1728 1010 1687T913 1646Q857 1646 816 1687T774 1786Z"  />
<glyph unicode="&#xD7;" horiz-adv-x="1706" d="M430 1214L870 774L1311 1214L1473 1053L1032 610L1473 170L1311 8L870 449L430 8L268 170L709 610L268 1053L430 1214Z"  />
<glyph unicode="&#xD8;" horiz-adv-x="1161" d="M102 182Q61 249 41 333T20 526Q20 728 72 916T215 1237Q300 1362 416 1424T682 1487Q766 1487 836 1462T965 1386L1069 1524L1155 1452L1047 1300Q1094 1241 1116 1152T1139 932Q1139 502 957 237T479 -29Q389 -29 312 1T176 88L68 -63L-16 20L102 182ZM426 623L735 1057Q732 1095 707 1118T641 1141Q558 1141 507 1019T426 623ZM741 887L416 434Q422 375 446 346T516 317Q602 317 654 447T741 887Z"  />
<glyph unicode="&#xD9;" horiz-adv-x="1151" d="M41 522L188 1460H598L442 483Q440 471 439 461T438 438Q438 401 459 380T518 358Q566 358 593 389T631 483L786 1460H1194L1045 523L1042 508Q999 242 911 137Q841 53 734 11T479 -31Q249 -31 138 65T27 360Q27 392 30 430T41 522ZM672 1599L549 1911H811L831 1599H672Z"  />
<glyph unicode="&#xDA;" horiz-adv-x="1151" d="M41 522L188 1460H598L442 483Q440 471 439 461T438 438Q438 401 459 380T518 358Q566 358 593 389T631 483L786 1460H1194L1045 523L1042 508Q999 242 911 137Q841 53 734 11T479 -31Q249 -31 138 65T27 360Q27 392 30 430T41 522ZM756 1599H598L717 1911H977L756 1599Z"  />
<glyph unicode="&#xDB;" horiz-adv-x="1151" d="M41 522L188 1460H598L442 483Q440 471 439 461T438 438Q438 401 459 380T518 358Q566 358 593 389T631 483L786 1460H1194L1045 523L1042 508Q999 242 911 137Q841 53 734 11T479 -31Q249 -31 138 65T27 360Q27 392 30 430T41 522ZM434 1599L635 1913H889L991 1599H825L737 1759L600 1599H434Z"  />
<glyph unicode="&#xDC;" horiz-adv-x="1151" d="M41 522L188 1460H598L442 483Q440 471 439 461T438 438Q438 401 459 380T518 358Q566 358 593 389T631 483L786 1460H1194L1045 523L1042 508Q999 242 911 137Q841 53 734 11T479 -31Q249 -31 138 65T27 360Q27 392 30 430T41 522ZM440 1786Q440 1842 481 1882T579 1923Q636 1923 676 1883T717 1786Q717 1728 677 1687T579 1646Q524 1646 482 1687T440 1786ZM770 1786Q770 1842 811 1882T909 1923Q966 1923 1006 1883T1046 1786Q1046 1728 1006 1687T909 1646Q853 1646 812 1687T770 1786Z"  />
<glyph unicode="&#xDD;" horiz-adv-x="1038" d="M94 1460H524L565 1012L745 1460H1176L700 586L608 0H201L295 586L94 1460ZM699 1599H541L660 1911H920L699 1599Z"  />
<glyph unicode="&#xDE;" horiz-adv-x="1100" d="M377 0H-31L201 1460H608L574 1233Q820 1230 941 1129T1063 823Q1063 552 909 405T469 258Q461 258 444 259T418 260L377 0ZM518 909L467 586Q475 585 484 585T506 584Q593 584 635 635T678 793Q678 851 643 880T539 909H518Z"  />
<glyph unicode="&#xDF;" horiz-adv-x="1049" d="M-43 0L117 1014Q173 1371 282 1493T621 1616Q810 1616 922 1525T1034 1278Q1034 1159 970 1065T793 922Q894 886 945 807T997 606Q997 438 954 299T838 90Q786 40 708 16T516 -8Q481 -8 449 -4T385 8L426 268Q435 267 444 267T469 266Q546 266 581 362T616 668Q616 726 599 751T541 776Q530 776 524 776T512 775L553 1030H563Q623 1030 651 1079T680 1231Q680 1269 660 1293T608 1317Q561 1317 537 1279T494 1122L317 0H-43Z"  />
<glyph unicode="&#xE0;" horiz-adv-x="1057" d="M504 0L520 113Q453 39 390 5T256 -29Q135 -29 68 65T0 328Q0 638 123 845T428 1053Q499 1053 551 1020T647 913L666 1024H1034L872 0H504ZM520 733Q464 733 424 639T383 414Q383 355 400 324T451 293Q506 293 546 388T586 616Q586 674 570 703T520 733ZM617 1163L494 1475H756L776 1163H617Z"  />
<glyph unicode="&#xE1;" horiz-adv-x="1057" d="M504 0L520 113Q453 39 390 5T256 -29Q135 -29 68 65T0 328Q0 638 123 845T428 1053Q499 1053 551 1020T647 913L666 1024H1034L872 0H504ZM520 733Q464 733 424 639T383 414Q383 355 400 324T451 293Q506 293 546 388T586 616Q586 674 570 703T520 733ZM701 1163H543L662 1475H922L701 1163Z"  />
<glyph unicode="&#xE2;" horiz-adv-x="1057" d="M504 0L520 113Q453 39 390 5T256 -29Q135 -29 68 65T0 328Q0 638 123 845T428 1053Q499 1053 551 1020T647 913L666 1024H1034L872 0H504ZM520 733Q464 733 424 639T383 414Q383 355 400 324T451 293Q506 293 546 388T586 616Q586 674 570 703T520 733ZM379 1163L580 1477H834L936 1163H770L682 1323L545 1163H379Z"  />
<glyph unicode="&#xE3;" horiz-adv-x="1057" d="M504 0L520 113Q453 39 390 5T256 -29Q135 -29 68 65T0 328Q0 638 123 845T428 1053Q499 1053 551 1020T647 913L666 1024H1034L872 0H504ZM520 733Q464 733 424 639T383 414Q383 355 400 324T451 293Q506 293 546 388T586 616Q586 674 570 703T520 733ZM619 1270Q608 1274 599 1276T578 1278Q551 1278 530 1257T496 1196H402Q431 1336 482 1402T613 1468Q627 1468 640 1466T670 1458L755 1424Q768 1418 779 1416T799 1413Q829 1413 850 1435T883 1501H979Q946 1356 894 1290T760 1223Q749 1223 737 1225T711 1233L619 1270Z"  />
<glyph unicode="&#xE4;" horiz-adv-x="1057" d="M504 0L520 113Q453 39 390 5T256 -29Q135 -29 68 65T0 328Q0 638 123 845T428 1053Q499 1053 551 1020T647 913L666 1024H1034L872 0H504ZM520 733Q464 733 424 639T383 414Q383 355 400 324T451 293Q506 293 546 388T586 616Q586 674 570 703T520 733ZM385 1350Q385 1406 426 1446T524 1487Q581 1487 621 1447T662 1350Q662 1292 622 1251T524 1210Q469 1210 427 1251T385 1350ZM715 1350Q715 1406 756 1446T854 1487Q911 1487 951 1447T991 1350Q991 1292 951 1251T854 1210Q798 1210 757 1251T715 1350Z"  />
<glyph unicode="&#xE5;" horiz-adv-x="1057" d="M520 733Q464 733 424 639T383 414Q383 355 400 324T451 293Q506 293 546 388T586 616Q586 674 570 703T520 733ZM504 0L520 113Q453 39 390 5T256 -29Q135 -29 68 65T0 328Q0 638 123 845T428 1053Q499 1053 551 1020T647 913L666 1024H1034L872 0H504ZM438 1323Q438 1415 502 1478T657 1542Q749 1542 813 1478T877 1323Q877 1231 814 1168T657 1104Q565 1104 502 1167T438 1323ZM561 1321Q561 1282 589 1255T657 1227Q697 1227 725 1254T754 1321Q754 1361 726 1390T657 1419Q619 1419 590 1390T561 1321Z"  />
<glyph unicode="&#xE6;" horiz-adv-x="1518" d="M893 469Q891 455 888 430Q881 368 881 348Q881 295 904 270T977 244Q1029 244 1057 272T1090 358H1401Q1386 175 1269 72T958 -31Q853 -31 770 1T616 100Q553 37 463 4T260 -29Q115 -29 32 54T-51 285Q-51 446 51 546T319 647Q380 647 439 633T565 588Q566 615 569 650T573 694Q573 757 521 789T367 821Q308 821 243 802T102 743L147 999Q231 1029 311 1043T475 1057Q578 1057 652 1031T778 948Q841 1002 909 1027T1057 1053Q1233 1053 1341 950T1450 680Q1450 636 1446 585T1434 469H893ZM918 641H1136Q1139 673 1140 688T1141 715Q1141 764 1119 789T1055 815Q1000 815 968 774T918 641ZM391 414Q340 414 305 384T270 313Q270 272 305 243T391 213Q444 213 476 240T508 313Q508 359 476 386T391 414Z"  />
<glyph unicode="&#xE7;" horiz-adv-x="707" d="M549 8Q498 -10 448 -19T348 -29Q181 -29 89 73T-4 360Q-4 673 141 863T524 1053Q569 1053 615 1043T707 1012L657 698Q636 712 615 718T569 725Q504 725 460 646T416 446Q416 376 439 345T514 313Q534 313 556 319T600 336L549 8ZM26 -438L48 -297Q106 -319 162 -330T272 -342Q314 -342 339 -321T364 -266Q364 -238 343 -225T274 -211Q252 -211 239 -211T215 -213L247 0H368L356 -84H370Q462 -84 509 -123T556 -238Q556 -356 486 -419T284 -483Q230 -483 166 -472T26 -438Z"  />
<glyph unicode="&#xE8;" horiz-adv-x="991" d="M391 641H610Q613 674 613 688T614 715Q614 764 593 789T528 815Q473 815 441 774T391 641ZM874 358Q859 175 742 72T432 -31Q222 -31 112 84T2 418Q2 707 141 880T514 1053Q703 1053 813 953T924 680Q924 636 920 585T907 469H365Q359 421 357 393T354 348Q354 295 378 270T451 244Q503 244 531 272T563 358H874ZM524 1163L401 1475H663L683 1163H524Z"  />
<glyph unicode="&#xE9;" horiz-adv-x="991" d="M391 641H610Q613 674 613 688T614 715Q614 764 593 789T528 815Q473 815 441 774T391 641ZM874 358Q859 175 742 72T432 -31Q222 -31 112 84T2 418Q2 707 141 880T514 1053Q703 1053 813 953T924 680Q924 636 920 585T907 469H365Q359 421 357 393T354 348Q354 295 378 270T451 244Q503 244 531 272T563 358H874ZM608 1163H450L569 1475H829L608 1163Z"  />
<glyph unicode="&#xEA;" horiz-adv-x="991" d="M391 641H610Q613 674 613 688T614 715Q614 764 593 789T528 815Q473 815 441 774T391 641ZM874 358Q859 175 742 72T432 -31Q222 -31 112 84T2 418Q2 707 141 880T514 1053Q703 1053 813 953T924 680Q924 636 920 585T907 469H365Q359 421 357 393T354 348Q354 295 378 270T451 244Q503 244 531 272T563 358H874ZM286 1163L487 1477H741L843 1163H677L589 1323L452 1163H286Z"  />
<glyph unicode="&#xEB;" horiz-adv-x="991" d="M391 641H610Q613 674 613 688T614 715Q614 764 593 789T528 815Q473 815 441 774T391 641ZM874 358Q859 175 742 72T432 -31Q222 -31 112 84T2 418Q2 707 141 880T514 1053Q703 1053 813 953T924 680Q924 636 920 585T907 469H365Q359 421 357 393T354 348Q354 295 378 270T451 244Q503 244 531 272T563 358H874ZM292 1350Q292 1406 333 1446T431 1487Q488 1487 528 1447T569 1350Q569 1292 529 1251T431 1210Q376 1210 334 1251T292 1350ZM622 1350Q622 1406 663 1446T761 1487Q818 1487 858 1447T898 1350Q898 1292 858 1251T761 1210Q705 1210 664 1251T622 1350Z"  />
<glyph unicode="&#xEC;" horiz-adv-x="537" d="M-33 0L129 1024H500L338 0H-33ZM296 1163L173 1475H435L455 1163H296Z"  />
<glyph unicode="&#xED;" horiz-adv-x="537" d="M-33 0L129 1024H500L338 0H-33ZM380 1163H222L341 1475H601L380 1163Z"  />
<glyph unicode="&#xEE;" horiz-adv-x="537" d="M-33 0L129 1024H500L338 0H-33ZM58 1163L259 1477H513L615 1163H449L361 1323L224 1163H58Z"  />
<glyph unicode="&#xEF;" horiz-adv-x="537" d="M-33 0L129 1024H500L338 0H-33ZM64 1350Q64 1406 105 1446T203 1487Q260 1487 300 1447T341 1350Q341 1292 301 1251T203 1210Q148 1210 106 1251T64 1350ZM394 1350Q394 1406 435 1446T533 1487Q590 1487 630 1447T670 1350Q670 1292 630 1251T533 1210Q477 1210 436 1251T394 1350Z"  />
<glyph unicode="&#xF0;" horiz-adv-x="999" d="M371 387Q371 334 387 307T434 279Q488 279 527 379T567 616Q567 672 551 698T502 725Q450 725 411 624T371 387ZM805 1270Q875 1126 909 976T944 664Q944 330 813 150T440 -31Q225 -31 114 79T2 403Q2 672 130 843T461 1014Q505 1014 540 1004T608 971Q593 1034 577 1089T543 1198L303 1130L260 1284L481 1348Q459 1408 429 1468T358 1593H608Q641 1552 670 1509T727 1417L952 1477L1001 1329L805 1270Z"  />
<glyph unicode="&#xF1;" horiz-adv-x="1006" d="M-47 0L115 1024H449L432 918Q486 979 552 1010T694 1042Q813 1042 878 982T944 811Q944 785 941 752T930 668L825 0H455L551 604Q551 608 552 616Q555 636 555 639Q555 668 539 684T494 700Q464 700 445 675T418 600L322 0H-47ZM530 1270Q519 1274 510 1276T489 1278Q462 1278 441 1257T407 1196H313Q342 1336 393 1402T524 1468Q538 1468 551 1466T581 1458L666 1424Q679 1418 690 1416T710 1413Q740 1413 761 1435T794 1501H890Q857 1356 805 1290T671 1223Q660 1223 648 1225T622 1233L530 1270Z"  />
<glyph unicode="&#xF2;" horiz-adv-x="999" d="M442 -31Q227 -31 115 83T2 416Q2 706 136 879T498 1053Q713 1053 824 940T936 606Q936 315 803 142T442 -31ZM371 391Q371 335 387 307T434 279Q487 279 527 383T567 631Q567 688 551 715T502 743Q450 743 411 638T371 391ZM528 1163L405 1475H667L687 1163H528Z"  />
<glyph unicode="&#xF3;" horiz-adv-x="999" d="M442 -31Q227 -31 115 83T2 416Q2 706 136 879T498 1053Q713 1053 824 940T936 606Q936 315 803 142T442 -31ZM371 391Q371 335 387 307T434 279Q487 279 527 383T567 631Q567 688 551 715T502 743Q450 743 411 638T371 391ZM612 1163H454L573 1475H833L612 1163Z"  />
<glyph unicode="&#xF4;" horiz-adv-x="999" d="M442 -31Q227 -31 115 83T2 416Q2 706 136 879T498 1053Q713 1053 824 940T936 606Q936 315 803 142T442 -31ZM371 391Q371 335 387 307T434 279Q487 279 527 383T567 631Q567 688 551 715T502 743Q450 743 411 638T371 391ZM290 1163L491 1477H745L847 1163H681L593 1323L456 1163H290Z"  />
<glyph unicode="&#xF5;" horiz-adv-x="999" d="M442 -31Q227 -31 115 83T2 416Q2 706 136 879T498 1053Q713 1053 824 940T936 606Q936 315 803 142T442 -31ZM371 391Q371 335 387 307T434 279Q487 279 527 383T567 631Q567 688 551 715T502 743Q450 743 411 638T371 391ZM530 1270Q519 1274 510 1276T489 1278Q462 1278 441 1257T407 1196H313Q342 1336 393 1402T524 1468Q538 1468 551 1466T581 1458L666 1424Q679 1418 690 1416T710 1413Q740 1413 761 1435T794 1501H890Q857 1356 805 1290T671 1223Q660 1223 648 1225T622 1233L530 1270Z"  />
<glyph unicode="&#xF6;" horiz-adv-x="999" d="M442 -31Q227 -31 115 83T2 416Q2 706 136 879T498 1053Q713 1053 824 940T936 606Q936 315 803 142T442 -31ZM371 391Q371 335 387 307T434 279Q487 279 527 383T567 631Q567 688 551 715T502 743Q450 743 411 638T371 391ZM296 1350Q296 1406 337 1446T435 1487Q492 1487 532 1447T573 1350Q573 1292 533 1251T435 1210Q380 1210 338 1251T296 1350ZM626 1350Q626 1406 667 1446T765 1487Q822 1487 862 1447T902 1350Q902 1292 862 1251T765 1210Q709 1210 668 1251T626 1350Z"  />
<glyph unicode="&#xF7;" horiz-adv-x="1706" d="M854 1182Q921 1182 969 1133T1018 1016Q1018 948 970 900T852 852Q783 852 736 900T688 1016Q688 1084 737 1133T854 1182ZM254 727H1452V496H254V727ZM854 371Q922 371 970 323T1018 205Q1018 137 971 89T854 41Q785 41 737 89T688 205Q688 273 737 322T854 371Z"  />
<glyph unicode="&#xF8;" horiz-adv-x="999" d="M96 98Q52 144 26 230T0 420Q0 551 42 685T150 897Q217 977 302 1015T500 1053Q582 1053 646 1036T768 983L856 1102L922 1057L827 934Q879 886 907 799T936 602Q936 466 895 334T788 125Q722 45 637 7T436 -31Q348 -31 281 -12T154 49L57 -80L-6 -39L96 98ZM340 408L586 731Q570 752 551 762T506 772Q436 772 393 677T340 408ZM602 645L350 317Q363 282 382 266T432 250Q510 250 554 353T602 645Z"  />
<glyph unicode="&#xF9;" horiz-adv-x="1008" d="M106 1024H477L375 375Q374 372 374 368T373 356Q373 328 389 313T434 297Q467 297 490 318T520 375L623 1024H993L895 410Q861 191 733 81T383 -29Q202 -29 100 53T-2 281Q-2 310 1 342T10 410L106 1024ZM532 1163L409 1475H671L691 1163H532Z"  />
<glyph unicode="&#xFA;" horiz-adv-x="1008" d="M106 1024H477L375 375Q374 372 374 368T373 356Q373 328 389 313T434 297Q467 297 490 318T520 375L623 1024H993L895 410Q861 191 733 81T383 -29Q202 -29 100 53T-2 281Q-2 310 1 342T10 410L106 1024ZM616 1163H458L577 1475H837L616 1163Z"  />
<glyph unicode="&#xFB;" horiz-adv-x="1008" d="M106 1024H477L375 375Q374 372 374 368T373 356Q373 328 389 313T434 297Q467 297 490 318T520 375L623 1024H993L895 410Q861 191 733 81T383 -29Q202 -29 100 53T-2 281Q-2 310 1 342T10 410L106 1024ZM294 1163L495 1477H749L851 1163H685L597 1323L460 1163H294Z"  />
<glyph unicode="&#xFC;" horiz-adv-x="1008" d="M106 1024H477L375 375Q374 372 374 368T373 356Q373 328 389 313T434 297Q467 297 490 318T520 375L623 1024H993L895 410Q861 191 733 81T383 -29Q202 -29 100 53T-2 281Q-2 310 1 342T10 410L106 1024ZM300 1350Q300 1406 341 1446T439 1487Q496 1487 536 1447T577 1350Q577 1292 537 1251T439 1210Q384 1210 342 1251T300 1350ZM630 1350Q630 1406 671 1446T769 1487Q826 1487 866 1447T906 1350Q906 1292 866 1251T769 1210Q713 1210 672 1251T630 1350Z"  />
<glyph unicode="&#xFD;" horiz-adv-x="934" d="M-23 -350L164 20L14 1024H399L422 465L639 1024H1014L328 -350H-23ZM579 1163H421L540 1475H800L579 1163Z"  />
<glyph unicode="&#xFE;" horiz-adv-x="1065" d="M414 408Q414 347 432 317T487 287Q544 287 582 381T621 616Q621 678 604 706T549 735Q492 735 453 641T414 408ZM-88 -350L219 1593H590L485 952Q545 1003 606 1028T731 1053Q863 1053 933 958T1004 684Q1004 382 883 177T588 -29Q512 -29 450 -4T346 70L281 -350H-88Z"  />
<glyph unicode="&#xFF;" horiz-adv-x="934" d="M-23 -350L164 20L14 1024H399L422 465L639 1024H1014L328 -350H-23ZM263 1350Q263 1406 304 1446T402 1487Q459 1487 499 1447T540 1350Q540 1292 500 1251T402 1210Q347 1210 305 1251T263 1350ZM593 1350Q593 1406 634 1446T732 1487Q789 1487 829 1447T869 1350Q869 1292 829 1251T732 1210Q676 1210 635 1251T593 1350Z"  />
<glyph unicode="&#x131;" horiz-adv-x="537" d="M-33 0L129 1024H500L338 0H-33Z"  />
<glyph unicode="&#x152;" horiz-adv-x="1470" d="M420 485Q420 401 446 362T526 322Q577 322 614 359T676 473Q709 572 730 708T752 969Q752 1057 726 1096T641 1135Q600 1135 566 1107T510 1026Q473 932 447 778T420 485ZM1532 1460L1477 1106H1161L1130 920H1415L1362 578H1077L1044 377H1360L1300 0H827Q754 0 642 -8T492 -16Q275 -16 148 130T20 524Q20 725 72 912T215 1229Q303 1353 419 1415T682 1477Q714 1477 840 1469T1059 1460H1532Z"  />
<glyph unicode="&#x153;" horiz-adv-x="1550" d="M358 397Q358 331 378 298T436 264Q497 264 539 368T582 627Q582 696 564 727T504 758Q445 758 402 652T358 397ZM950 641H1169Q1172 674 1172 688T1174 715Q1174 764 1152 789T1087 815Q1033 815 1001 774T950 641ZM711 68Q655 19 583 -5T422 -29Q220 -29 111 86T2 416Q2 704 136 878T494 1053Q591 1053 664 1027T788 948Q840 998 917 1025T1087 1053Q1266 1053 1374 951T1483 680Q1483 636 1479 585T1466 469H928Q926 455 923 430Q915 367 915 348Q915 295 939 270T1012 244Q1064 244 1092 272T1124 358H1434Q1418 177 1302 74T997 -29Q910 -29 840 -6T711 68Z"  />
<glyph unicode="&#x160;" horiz-adv-x="891" d="M-4 449Q64 392 139 361T283 330Q344 330 380 363T416 455Q416 505 386 554T270 686Q166 787 127 864T88 1034Q88 1243 220 1366T580 1489Q672 1489 755 1469T924 1405L866 1049Q800 1095 738 1119T618 1143Q567 1143 538 1117T508 1044Q508 982 621 870Q635 856 643 848Q757 736 793 656T829 471Q829 237 685 102T289 -33Q182 -33 87 -8T-74 63L-4 449ZM352 1913H518L606 1753L743 1913H909L709 1599H455L352 1913Z"  />
<glyph unicode="&#x161;" horiz-adv-x="801" d="M49 360Q108 306 165 278T272 250Q309 250 330 266T352 311Q352 357 265 411Q247 422 238 428Q135 495 91 559T47 707Q47 860 154 956T434 1053Q510 1053 586 1034T727 979L664 707Q611 748 566 768T479 788Q442 788 420 771T397 727Q397 694 458 652Q481 636 493 627Q623 531 659 469T696 324Q696 166 587 70T295 -27Q205 -27 114 1T-57 82L49 360ZM240 1477H406L494 1317L631 1477H797L597 1163H343L240 1477Z"  />
<glyph unicode="&#x178;" horiz-adv-x="1038" d="M94 1460H524L565 1012L745 1460H1176L700 586L608 0H201L295 586L94 1460ZM383 1786Q383 1842 424 1882T522 1923Q579 1923 619 1883T660 1786Q660 1728 620 1687T522 1646Q467 1646 425 1687T383 1786ZM713 1786Q713 1842 754 1882T852 1923Q909 1923 949 1883T989 1786Q989 1728 949 1687T852 1646Q796 1646 755 1687T713 1786Z"  />
<glyph unicode="&#x17D;" horiz-adv-x="977" d="M-137 0L492 1094H111L170 1460H1114L492 375H881L821 0H-137ZM395 1913H561L649 1753L786 1913H952L752 1599H498L395 1913Z"  />
<glyph unicode="&#x17E;" horiz-adv-x="864" d="M-145 0L305 700H41L92 1024H893L457 338H756L702 0H-145ZM271 1477H437L525 1317L662 1477H828L628 1163H374L271 1477Z"  />
<glyph unicode="&#x192;" horiz-adv-x="1006" d="M485 -39Q435 -220 342 -294T78 -369Q25 -369 -28 -356T-137 -317L-53 -29Q-24 -37 -7 -40T27 -43Q66 -43 90 -17T131 68L293 662H135L203 905H358L430 1159Q481 1340 574 1414T838 1489Q889 1489 942 1476T1053 1436L969 1147Q936 1157 920 1160T889 1163Q849 1163 824 1136T784 1051L748 905H899L831 662H680L485 -39Z"  />
<glyph unicode="&#x2C6;" horiz-adv-x="1024" d="M301 1163L502 1477H756L858 1163H692L604 1323L467 1163H301Z"  />
<glyph unicode="&#x2C7;" horiz-adv-x="1024" d="M350 1477H516L604 1317L741 1477H907L707 1163H453L350 1477Z"  />
<glyph unicode="&#x2DC;" horiz-adv-x="1024" d="M541 1270Q530 1274 521 1276T500 1278Q473 1278 452 1257T418 1196H324Q353 1336 404 1402T535 1468Q549 1468 562 1466T592 1458L677 1424Q690 1418 701 1416T721 1413Q751 1413 772 1435T805 1501H901Q868 1356 816 1290T682 1223Q671 1223 659 1225T633 1233L541 1270Z"  />
<glyph unicode="&#x2013;" horiz-adv-x="1024" d="M-53 389L-14 635H1010L971 389H-53Z"  />
<glyph unicode="&#x2014;" horiz-adv-x="2048" d="M-53 389L-14 635H2034L1993 389H-53Z"  />
<glyph unicode="&#x2018;" horiz-adv-x="553" d="M623 1460L410 741H27L410 1460H623Z"  />
<glyph unicode="&#x2019;" horiz-adv-x="553" d="M39 741L252 1460H635L254 741H39Z"  />
<glyph unicode="&#x201A;" horiz-adv-x="553" d="M-162 -340L51 379H434L53 -340H-162Z"  />
<glyph unicode="&#x201C;" horiz-adv-x="1008" d="M629 1460L416 741H33L416 1460H629ZM1079 1460L868 741H485L866 1460H1079Z"  />
<glyph unicode="&#x201D;" horiz-adv-x="1008" d="M47 741L258 1460H641L260 741H47ZM504 741L715 1460H1100L717 741H504Z"  />
<glyph unicode="&#x201E;" horiz-adv-x="1008" d="M-160 -340L53 379H436L55 -340H-160ZM297 -340L510 379H893L512 -340H297Z"  />
<glyph unicode="&#x2020;" horiz-adv-x="1057" d="M184 -322L350 733H45L100 1075H406L465 1460H823L762 1075H1067L1012 733H709L541 -322H184Z"  />
<glyph unicode="&#x2021;" horiz-adv-x="1057" d="M190 -322L242 0H-66L-14 326H293L371 817H63L115 1143H422L473 1460H815L766 1143H1073L1020 817H713L635 326H942L891 0H584L532 -322H190Z"  />
<glyph unicode="&#x2022;" horiz-adv-x="1208" d="M307 762Q307 885 394 971T604 1057Q726 1057 812 971T899 762Q899 640 812 553T602 465Q479 465 393 552T307 762Z"  />
<glyph unicode="&#x2026;" horiz-adv-x="2048" d="M473 240Q473 128 403 51T229 -27Q150 -27 102 25T53 164Q53 279 121 355T295 432Q375 432 424 380T473 240ZM1155 240Q1155 128 1085 51T911 -27Q832 -27 784 25T735 164Q735 279 803 355T977 432Q1057 432 1106 380T1155 240ZM1839 240Q1839 128 1769 51T1595 -27Q1516 -27 1468 25T1419 164Q1419 279 1487 355T1661 432Q1741 432 1790 380T1839 240Z"  />
<glyph unicode="&#x2030;" horiz-adv-x="2189" d="M98 1004Q98 1222 198 1351T467 1481Q594 1481 664 1403T735 1184Q735 961 640 833T379 705Q245 705 172 783T98 1004ZM1116 569Q1069 569 1038 469T1006 227Q1006 199 1018 184T1053 168Q1078 168 1094 187T1124 251Q1140 305 1150 377T1161 500Q1161 535 1150 552T1116 569ZM764 274Q764 493 864 622T1133 752Q1260 752 1331 673T1403 455Q1403 233 1306 103T1044 -27Q911 -27 838 52T764 274ZM1122 1489H1311L381 -29H193L1122 1489ZM451 1300Q404 1300 373 1201T342 958Q342 929 354 913T387 897Q434 897 466 996T498 1231Q498 1266 486 1283T451 1300ZM1804 569Q1758 569 1727 470T1696 227Q1696 199 1707 184T1741 168Q1767 168 1783 186T1812 251Q1829 307 1840 379T1851 500Q1851 534 1840 551T1804 569ZM1452 274Q1452 493 1552 622T1821 752Q1948 752 2018 674T2089 455Q2089 232 1993 103T1733 -27Q1599 -27 1526 52T1452 274Z"  />
<glyph unicode="&#x2039;" horiz-adv-x="563" d="M406 168L215 74L35 522L354 950L516 856L248 522L406 168Z"  />
<glyph unicode="&#x203A;" horiz-adv-x="563" d="M-20 168L250 522L88 856L279 950L463 522L139 74L-20 168Z"  />
<glyph unicode="&#x20AC;" horiz-adv-x="657" d="M31 452H97Q108 515 132 566T193 653T274 709T374 729Q425 729 466 714T538 671T588 606T614 523H520Q508 581 472 614T373 647Q298 647 255 595T197 452H400V395H191Q190 385 190 375T190 355Q190 344 190 334T191 314H400V257H198Q214 163 261 115T381 67Q450 67 488 112T534 226H624Q622 176 605 132T556 56T480 4T382 -15Q328 -15 281 3T197 56T134 141T97 257H31V314H90Q89 324 89 334T89 355Q89 365 89 375T90 395H31V452Z"  />
<glyph unicode="&#x2122;" horiz-adv-x="1706" d="M188 1464H690V1337H526V913H352V1337H188V1464ZM797 1464H1020L1133 1161L1247 1464H1468V913H1313V1303L1167 913H1102L952 1303V913H797V1464Z"  />

<hkern u1="-" u2="C" k="-38" />
<hkern u1="-" u2="G" k="-38" />
<hkern u1="-" u2="J" k="-38" />
<hkern u1="-" u2="O" k="-38" />
<hkern u1="-" u2="Q" k="-38" />
<hkern u1="-" u2="T" k="112" />
<hkern u1="-" u2="V" k="92" />
<hkern u1="-" u2="W" k="45" />
<hkern u1="-" u2="Y" k="83" />
<hkern u1="-" u2="o" k="-38" />
<hkern u1="-" u2="&#xc6;" k="-57" />
<hkern u1="-" u2="&#xd8;" k="-38" />
<hkern u1="-" u2="&#xf8;" k="-38" />
<hkern u1="-" u2="&#x152;" k="-38" />
<hkern u1="-" u2="&#x153;" k="-38" />
<hkern u1="A" u2="&#x2c;" k="-65" />
<hkern u1="A" u2="." k="-65" />
<hkern u1="A" u2=":" k="-38" />
<hkern u1="A" u2=";" k="-38" />
<hkern u1="A" u2="S" k="-38" />
<hkern u1="A" u2="T" k="55" />
<hkern u1="A" u2="V" k="36" />
<hkern u1="A" u2="W" k="36" />
<hkern u1="A" u2="Y" k="112" />
<hkern u1="A" u2="y" k="36" />
<hkern u1="A" u2="&#x201c;" k="112" />
<hkern u1="A" u2="&#x201d;" k="92" />
<hkern u1="A" u2="&#x2018;" k="112" />
<hkern u1="A" u2="&#x2019;" k="92" />
<hkern u1="A" u2="&#x201a;" k="-38" />
<hkern u1="A" u2="&#x201e;" k="-38" />
<hkern u1="B" u2="Y" k="36" />
<hkern u1="B" u2="&#x201d;" k="36" />
<hkern u1="B" u2="&#x2019;" k="36" />
<hkern u1="B" u2="&#x201a;" k="73" />
<hkern u1="B" u2="&#x201e;" k="73" />
<hkern u1="C" u2="A" k="-65" />
<hkern u1="C" u2="Y" k="-57" />
<hkern u1="C" u2="&#xc5;" k="-65" />
<hkern u1="D" u2="Y" k="36" />
<hkern u1="D" u2="&#x201a;" k="149" />
<hkern u1="D" u2="&#x201e;" k="149" />
<hkern u1="F" u2="&#x2c;" k="215" />
<hkern u1="F" u2="." k="215" />
<hkern u1="F" u2="A" k="36" />
<hkern u1="F" u2="S" k="-47" />
<hkern u1="F" u2="T" k="-38" />
<hkern u1="F" u2="a" k="36" />
<hkern u1="F" u2="&#xc5;" k="36" />
<hkern u1="F" u2="&#xe6;" k="36" />
<hkern u1="F" u2="&#xab;" k="36" />
<hkern u1="F" u2="&#x201d;" k="-38" />
<hkern u1="F" u2="&#x2019;" k="-38" />
<hkern u1="F" u2="&#x2039;" k="36" />
<hkern u1="F" u2="&#x201a;" k="225" />
<hkern u1="F" u2="&#x201e;" k="225" />
<hkern u1="G" u2="-" k="-38" />
<hkern u1="G" u2="Y" k="36" />
<hkern u1="G" u2="&#x201d;" k="-57" />
<hkern u1="G" u2="&#x2019;" k="-57" />
<hkern u1="J" u2="&#x201a;" k="112" />
<hkern u1="J" u2="&#x201e;" k="112" />
<hkern u1="K" u2="-" k="73" />
<hkern u1="K" u2="A" k="-75" />
<hkern u1="K" u2="C" k="55" />
<hkern u1="K" u2="O" k="45" />
<hkern u1="K" u2="W" k="36" />
<hkern u1="K" u2="Y" k="36" />
<hkern u1="K" u2="a" k="36" />
<hkern u1="K" u2="e" k="36" />
<hkern u1="K" u2="o" k="36" />
<hkern u1="K" u2="u" k="36" />
<hkern u1="K" u2="y" k="36" />
<hkern u1="K" u2="&#xc5;" k="-75" />
<hkern u1="K" u2="&#xd8;" k="45" />
<hkern u1="K" u2="&#xe6;" k="36" />
<hkern u1="K" u2="&#xf8;" k="36" />
<hkern u1="K" u2="&#xab;" k="55" />
<hkern u1="K" u2="&#x152;" k="45" />
<hkern u1="K" u2="&#x153;" k="36" />
<hkern u1="K" u2="&#x201c;" k="73" />
<hkern u1="K" u2="&#x2018;" k="73" />
<hkern u1="K" u2="&#x2039;" k="55" />
<hkern u1="K" u2="&#x201a;" k="-65" />
<hkern u1="K" u2="&#x201e;" k="-65" />
<hkern u1="L" u2="A" k="-65" />
<hkern u1="L" u2="O" k="55" />
<hkern u1="L" u2="T" k="73" />
<hkern u1="L" u2="U" k="36" />
<hkern u1="L" u2="V" k="112" />
<hkern u1="L" u2="W" k="73" />
<hkern u1="L" u2="Y" k="120" />
<hkern u1="L" u2="y" k="73" />
<hkern u1="L" u2="&#xc5;" k="-65" />
<hkern u1="L" u2="&#xd8;" k="55" />
<hkern u1="L" u2="&#x152;" k="55" />
<hkern u1="L" u2="&#x201c;" k="188" />
<hkern u1="L" u2="&#x201d;" k="120" />
<hkern u1="L" u2="&#x2018;" k="188" />
<hkern u1="L" u2="&#x2019;" k="120" />
<hkern u1="O" u2="&#x2c;" k="45" />
<hkern u1="O" u2="-" k="-38" />
<hkern u1="O" u2="." k="45" />
<hkern u1="O" u2=":" k="-38" />
<hkern u1="O" u2=";" k="-38" />
<hkern u1="O" u2="X" k="36" />
<hkern u1="O" u2="Y" k="73" />
<hkern u1="O" u2="&#x201d;" k="-38" />
<hkern u1="O" u2="&#x2019;" k="-38" />
<hkern u1="O" u2="&#x201a;" k="73" />
<hkern u1="O" u2="&#x201e;" k="73" />
<hkern u1="P" u2="&#x2c;" k="415" />
<hkern u1="P" u2="-" k="45" />
<hkern u1="P" u2="." k="415" />
<hkern u1="P" u2="A" k="55" />
<hkern u1="P" u2="a" k="36" />
<hkern u1="P" u2="e" k="36" />
<hkern u1="P" u2="o" k="36" />
<hkern u1="P" u2="y" k="-47" />
<hkern u1="P" u2="&#xc5;" k="55" />
<hkern u1="P" u2="&#xe6;" k="36" />
<hkern u1="P" u2="&#xf8;" k="36" />
<hkern u1="P" u2="&#xab;" k="112" />
<hkern u1="P" u2="&#x153;" k="36" />
<hkern u1="P" u2="&#x201c;" k="-38" />
<hkern u1="P" u2="&#x201d;" k="-47" />
<hkern u1="P" u2="&#x2018;" k="-38" />
<hkern u1="P" u2="&#x2019;" k="-47" />
<hkern u1="P" u2="&#x2039;" k="112" />
<hkern u1="P" u2="&#x201a;" k="415" />
<hkern u1="P" u2="&#x201e;" k="415" />
<hkern u1="Q" u2="-" k="-38" />
<hkern u1="R" u2="&#x2c;" k="-38" />
<hkern u1="R" u2="-" k="55" />
<hkern u1="R" u2="." k="-38" />
<hkern u1="R" u2="A" k="-86" />
<hkern u1="R" u2="Y" k="36" />
<hkern u1="R" u2="a" k="36" />
<hkern u1="R" u2="e" k="36" />
<hkern u1="R" u2="o" k="36" />
<hkern u1="R" u2="y" k="-47" />
<hkern u1="R" u2="&#xc5;" k="-86" />
<hkern u1="R" u2="&#xe6;" k="36" />
<hkern u1="R" u2="&#xf8;" k="36" />
<hkern u1="R" u2="&#x153;" k="36" />
<hkern u1="R" u2="&#x201d;" k="-38" />
<hkern u1="R" u2="&#x2019;" k="-38" />
<hkern u1="S" u2="A" k="-38" />
<hkern u1="S" u2="S" k="-38" />
<hkern u1="S" u2="&#xc5;" k="-38" />
<hkern u1="T" u2="&#x2c;" k="149" />
<hkern u1="T" u2="-" k="112" />
<hkern u1="T" u2="." k="149" />
<hkern u1="T" u2=":" k="167" />
<hkern u1="T" u2=";" k="167" />
<hkern u1="T" u2="A" k="55" />
<hkern u1="T" u2="T" k="112" />
<hkern u1="T" u2="a" k="139" />
<hkern u1="T" u2="c" k="139" />
<hkern u1="T" u2="e" k="139" />
<hkern u1="T" u2="o" k="139" />
<hkern u1="T" u2="r" k="139" />
<hkern u1="T" u2="s" k="131" />
<hkern u1="T" u2="u" k="139" />
<hkern u1="T" u2="w" k="131" />
<hkern u1="T" u2="y" k="131" />
<hkern u1="T" u2="&#xc5;" k="55" />
<hkern u1="T" u2="&#xe6;" k="139" />
<hkern u1="T" u2="&#xf8;" k="139" />
<hkern u1="T" u2="&#xab;" k="112" />
<hkern u1="T" u2="&#xbb;" k="112" />
<hkern u1="T" u2="&#x153;" k="139" />
<hkern u1="T" u2="&#x2039;" k="112" />
<hkern u1="T" u2="&#x203a;" k="112" />
<hkern u1="T" u2="&#x201a;" k="149" />
<hkern u1="T" u2="&#x201e;" k="149" />
<hkern u1="V" u2="&#x2c;" k="149" />
<hkern u1="V" u2="-" k="92" />
<hkern u1="V" u2="." k="149" />
<hkern u1="V" u2=":" k="63" />
<hkern u1="V" u2=";" k="63" />
<hkern u1="V" u2="A" k="36" />
<hkern u1="V" u2="a" k="83" />
<hkern u1="V" u2="e" k="83" />
<hkern u1="V" u2="i" k="-38" />
<hkern u1="V" u2="o" k="83" />
<hkern u1="V" u2="u" k="55" />
<hkern u1="V" u2="&#xc5;" k="36" />
<hkern u1="V" u2="&#xe6;" k="83" />
<hkern u1="V" u2="&#xf8;" k="83" />
<hkern u1="V" u2="&#xab;" k="112" />
<hkern u1="V" u2="&#xbb;" k="73" />
<hkern u1="V" u2="&#x153;" k="83" />
<hkern u1="V" u2="&#x2039;" k="112" />
<hkern u1="V" u2="&#x203a;" k="73" />
<hkern u1="V" u2="&#x201a;" k="188" />
<hkern u1="V" u2="&#x201e;" k="188" />
<hkern u1="W" u2="&#x2c;" k="102" />
<hkern u1="W" u2="-" k="45" />
<hkern u1="W" u2="." k="102" />
<hkern u1="W" u2=":" k="45" />
<hkern u1="W" u2=";" k="45" />
<hkern u1="W" u2="A" k="36" />
<hkern u1="W" u2="a" k="73" />
<hkern u1="W" u2="e" k="73" />
<hkern u1="W" u2="i" k="-38" />
<hkern u1="W" u2="o" k="73" />
<hkern u1="W" u2="r" k="55" />
<hkern u1="W" u2="u" k="36" />
<hkern u1="W" u2="&#xc5;" k="36" />
<hkern u1="W" u2="&#xe6;" k="73" />
<hkern u1="W" u2="&#xf8;" k="73" />
<hkern u1="W" u2="&#xab;" k="73" />
<hkern u1="W" u2="&#xbb;" k="36" />
<hkern u1="W" u2="&#x153;" k="73" />
<hkern u1="W" u2="&#x201d;" k="-38" />
<hkern u1="W" u2="&#x2019;" k="-38" />
<hkern u1="W" u2="&#x2039;" k="73" />
<hkern u1="W" u2="&#x203a;" k="36" />
<hkern u1="W" u2="&#x201a;" k="149" />
<hkern u1="W" u2="&#x201e;" k="149" />
<hkern u1="X" u2="A" k="-75" />
<hkern u1="X" u2="C" k="36" />
<hkern u1="X" u2="O" k="36" />
<hkern u1="X" u2="e" k="36" />
<hkern u1="X" u2="&#xc5;" k="-75" />
<hkern u1="X" u2="&#xd8;" k="36" />
<hkern u1="X" u2="&#x152;" k="36" />
<hkern u1="X" u2="&#x201c;" k="36" />
<hkern u1="X" u2="&#x2018;" k="36" />
<hkern u1="X" u2="&#x201a;" k="-75" />
<hkern u1="X" u2="&#x201e;" k="-75" />
<hkern u1="Y" u2="&#x2c;" k="196" />
<hkern u1="Y" u2="-" k="83" />
<hkern u1="Y" u2="." k="196" />
<hkern u1="Y" u2=":" k="139" />
<hkern u1="Y" u2=";" k="139" />
<hkern u1="Y" u2="A" k="73" />
<hkern u1="Y" u2="C" k="73" />
<hkern u1="Y" u2="O" k="73" />
<hkern u1="Y" u2="a" k="167" />
<hkern u1="Y" u2="e" k="167" />
<hkern u1="Y" u2="o" k="167" />
<hkern u1="Y" u2="u" k="102" />
<hkern u1="Y" u2="&#xc5;" k="73" />
<hkern u1="Y" u2="&#xd8;" k="73" />
<hkern u1="Y" u2="&#xe6;" k="167" />
<hkern u1="Y" u2="&#xf8;" k="167" />
<hkern u1="Y" u2="&#xab;" k="149" />
<hkern u1="Y" u2="&#xbb;" k="73" />
<hkern u1="Y" u2="&#x152;" k="73" />
<hkern u1="Y" u2="&#x153;" k="167" />
<hkern u1="Y" u2="&#x2039;" k="149" />
<hkern u1="Y" u2="&#x203a;" k="73" />
<hkern u1="Y" u2="&#x201a;" k="188" />
<hkern u1="Y" u2="&#x201e;" k="188" />
<hkern u1="Z" u2="-" k="36" />
<hkern u1="Z" u2="&#x201c;" k="36" />
<hkern u1="Z" u2="&#x2018;" k="36" />
<hkern u1="e" u2="x" k="36" />
<hkern u1="f" u2="&#x2c;" k="36" />
<hkern u1="f" u2="." k="36" />
<hkern u1="f" u2="t" k="-65" />
<hkern u1="f" u2="w" k="-75" />
<hkern u1="f" u2="y" k="-86" />
<hkern u1="f" u2="&#x201c;" k="-65" />
<hkern u1="f" u2="&#x201d;" k="-141" />
<hkern u1="f" u2="&#x2018;" k="-65" />
<hkern u1="f" u2="&#x2019;" k="-141" />
<hkern u1="f" u2="&#x201a;" k="36" />
<hkern u1="f" u2="&#x201e;" k="36" />
<hkern u1="k" u2="a" k="36" />
<hkern u1="k" u2="e" k="36" />
<hkern u1="k" u2="o" k="36" />
<hkern u1="k" u2="y" k="-38" />
<hkern u1="k" u2="&#xe6;" k="36" />
<hkern u1="k" u2="&#xf8;" k="36" />
<hkern u1="k" u2="&#x153;" k="36" />
<hkern u1="n" u2="&#x201c;" k="36" />
<hkern u1="n" u2="&#x201d;" k="36" />
<hkern u1="n" u2="&#x2018;" k="36" />
<hkern u1="n" u2="&#x2019;" k="36" />
<hkern u1="o" u2="-" k="-38" />
<hkern u1="o" u2="x" k="36" />
<hkern u1="o" u2="&#x201c;" k="36" />
<hkern u1="o" u2="&#x2018;" k="36" />
<hkern u1="r" u2="&#x2c;" k="167" />
<hkern u1="r" u2="-" k="36" />
<hkern u1="r" u2="." k="167" />
<hkern u1="r" u2="f" k="-47" />
<hkern u1="r" u2="v" k="-75" />
<hkern u1="r" u2="w" k="-57" />
<hkern u1="r" u2="x" k="-57" />
<hkern u1="r" u2="y" k="-75" />
<hkern u1="r" u2="&#x201d;" k="-47" />
<hkern u1="r" u2="&#x2019;" k="-47" />
<hkern u1="r" u2="&#x201a;" k="120" />
<hkern u1="r" u2="&#x201e;" k="120" />
<hkern u1="v" u2="&#x2c;" k="83" />
<hkern u1="v" u2="." k="83" />
<hkern u1="v" u2="&#x201c;" k="-57" />
<hkern u1="v" u2="&#x201d;" k="-114" />
<hkern u1="v" u2="&#x2018;" k="-57" />
<hkern u1="v" u2="&#x2019;" k="-114" />
<hkern u1="v" u2="&#x201a;" k="120" />
<hkern u1="v" u2="&#x201e;" k="120" />
<hkern u1="w" u2="&#x2c;" k="73" />
<hkern u1="w" u2="." k="73" />
<hkern u1="w" u2="&#x201c;" k="-57" />
<hkern u1="w" u2="&#x201d;" k="-38" />
<hkern u1="w" u2="&#x2018;" k="-57" />
<hkern u1="w" u2="&#x2019;" k="-38" />
<hkern u1="w" u2="&#x201a;" k="120" />
<hkern u1="w" u2="&#x201e;" k="120" />
<hkern u1="x" u2="c" k="36" />
<hkern u1="x" u2="e" k="36" />
<hkern u1="x" u2="o" k="36" />
<hkern u1="x" u2="&#xf8;" k="36" />
<hkern u1="x" u2="&#x153;" k="36" />
<hkern u1="y" u2="&#x2c;" k="102" />
<hkern u1="y" u2="." k="102" />
<hkern u1="y" u2="&#x201c;" k="-75" />
<hkern u1="y" u2="&#x201d;" k="-38" />
<hkern u1="y" u2="&#x2018;" k="-75" />
<hkern u1="y" u2="&#x2019;" k="-38" />
<hkern u1="y" u2="&#x201a;" k="112" />
<hkern u1="y" u2="&#x201e;" k="112" />
<hkern u1="&#xc5;" u2="&#x2c;" k="-65" />
<hkern u1="&#xc5;" u2="." k="-65" />
<hkern u1="&#xc5;" u2=":" k="-38" />
<hkern u1="&#xc5;" u2=";" k="-38" />
<hkern u1="&#xc5;" u2="S" k="-38" />
<hkern u1="&#xc5;" u2="T" k="55" />
<hkern u1="&#xc5;" u2="V" k="36" />
<hkern u1="&#xc5;" u2="W" k="36" />
<hkern u1="&#xc5;" u2="Y" k="112" />
<hkern u1="&#xc5;" u2="y" k="36" />
<hkern u1="&#xc5;" u2="&#x201c;" k="112" />
<hkern u1="&#xc5;" u2="&#x201d;" k="92" />
<hkern u1="&#xc5;" u2="&#x2018;" k="112" />
<hkern u1="&#xc5;" u2="&#x2019;" k="92" />
<hkern u1="&#xc5;" u2="&#x201a;" k="-38" />
<hkern u1="&#xc5;" u2="&#x201e;" k="-38" />
<hkern u1="&#xdf;" u2="-" k="-38" />
<hkern u1="&#xdf;" u2="&#x201c;" k="73" />
<hkern u1="&#xdf;" u2="&#x2018;" k="73" />
<hkern u1="&#xc6;" u2="-" k="-38" />
<hkern u1="&#xd8;" u2="&#x2c;" k="45" />
<hkern u1="&#xd8;" u2="-" k="-38" />
<hkern u1="&#xd8;" u2="." k="45" />
<hkern u1="&#xd8;" u2=":" k="-38" />
<hkern u1="&#xd8;" u2=";" k="-38" />
<hkern u1="&#xd8;" u2="X" k="36" />
<hkern u1="&#xd8;" u2="Y" k="73" />
<hkern u1="&#xd8;" u2="&#x201d;" k="-38" />
<hkern u1="&#xd8;" u2="&#x2019;" k="-38" />
<hkern u1="&#xd8;" u2="&#x201a;" k="73" />
<hkern u1="&#xd8;" u2="&#x201e;" k="73" />
<hkern u1="&#xe6;" u2="x" k="36" />
<hkern u1="&#xf8;" u2="-" k="-38" />
<hkern u1="&#xf8;" u2="x" k="36" />
<hkern u1="&#xf8;" u2="&#x201c;" k="36" />
<hkern u1="&#xf8;" u2="&#x2018;" k="36" />
<hkern u1="&#xab;" u2="J" k="-38" />
<hkern u1="&#xab;" u2="T" k="112" />
<hkern u1="&#xab;" u2="V" k="73" />
<hkern u1="&#xab;" u2="W" k="36" />
<hkern u1="&#xab;" u2="Y" k="73" />
<hkern u1="&#xab;" u2="&#xc6;" k="-151" />
<hkern u1="&#xbb;" u2="T" k="112" />
<hkern u1="&#xbb;" u2="V" k="112" />
<hkern u1="&#xbb;" u2="W" k="73" />
<hkern u1="&#xbb;" u2="X" k="36" />
<hkern u1="&#xbb;" u2="Y" k="149" />
<hkern u1="&#x153;" u2="x" k="36" />
<hkern u1="&#x201c;" u2="A" k="83" />
<hkern u1="&#x201c;" u2="J" k="159" />
<hkern u1="&#x201c;" u2="Q" k="36" />
<hkern u1="&#x201c;" u2="T" k="-38" />
<hkern u1="&#x201c;" u2="V" k="-94" />
<hkern u1="&#x201c;" u2="W" k="-47" />
<hkern u1="&#x201c;" u2="X" k="-65" />
<hkern u1="&#x201c;" u2="Y" k="-114" />
<hkern u1="&#x201c;" u2="f" k="-75" />
<hkern u1="&#x201c;" u2="r" k="73" />
<hkern u1="&#x201c;" u2="&#xc5;" k="83" />
<hkern u1="&#x201c;" u2="&#xc6;" k="167" />
<hkern u1="&#x2018;" u2="A" k="83" />
<hkern u1="&#x2018;" u2="J" k="159" />
<hkern u1="&#x2018;" u2="Q" k="36" />
<hkern u1="&#x2018;" u2="T" k="-38" />
<hkern u1="&#x2018;" u2="V" k="-94" />
<hkern u1="&#x2018;" u2="W" k="-47" />
<hkern u1="&#x2018;" u2="X" k="-65" />
<hkern u1="&#x2018;" u2="Y" k="-114" />
<hkern u1="&#x2018;" u2="f" k="-75" />
<hkern u1="&#x2018;" u2="r" k="73" />
<hkern u1="&#x2018;" u2="&#xc5;" k="83" />
<hkern u1="&#x2018;" u2="&#xc6;" k="167" />
<hkern u1="&#x2039;" u2="J" k="-38" />
<hkern u1="&#x2039;" u2="T" k="112" />
<hkern u1="&#x2039;" u2="V" k="73" />
<hkern u1="&#x2039;" u2="W" k="36" />
<hkern u1="&#x2039;" u2="Y" k="73" />
<hkern u1="&#x2039;" u2="&#xc6;" k="-151" />
<hkern u1="&#x203a;" u2="T" k="112" />
<hkern u1="&#x203a;" u2="V" k="112" />
<hkern u1="&#x203a;" u2="W" k="73" />
<hkern u1="&#x203a;" u2="X" k="36" />
<hkern u1="&#x203a;" u2="Y" k="149" />
<hkern u1="&#x201a;" u2="A" k="-38" />
<hkern u1="&#x201a;" u2="C" k="36" />
<hkern u1="&#x201a;" u2="J" k="-75" />
<hkern u1="&#x201a;" u2="O" k="36" />
<hkern u1="&#x201a;" u2="T" k="167" />
<hkern u1="&#x201a;" u2="V" k="149" />
<hkern u1="&#x201a;" u2="W" k="102" />
<hkern u1="&#x201a;" u2="Y" k="188" />
<hkern u1="&#x201a;" u2="f" k="36" />
<hkern u1="&#x201a;" u2="v" k="45" />
<hkern u1="&#x201a;" u2="w" k="83" />
<hkern u1="&#x201a;" u2="&#xc5;" k="-38" />
<hkern u1="&#x201a;" u2="&#xc6;" k="-75" />
<hkern u1="&#x201a;" u2="&#xd8;" k="36" />
<hkern u1="&#x201a;" u2="&#x152;" k="36" />
<hkern u1="&#x201e;" u2="A" k="-38" />
<hkern u1="&#x201e;" u2="C" k="36" />
<hkern u1="&#x201e;" u2="J" k="-75" />
<hkern u1="&#x201e;" u2="O" k="36" />
<hkern u1="&#x201e;" u2="T" k="167" />
<hkern u1="&#x201e;" u2="V" k="149" />
<hkern u1="&#x201e;" u2="W" k="102" />
<hkern u1="&#x201e;" u2="Y" k="188" />
<hkern u1="&#x201e;" u2="f" k="36" />
<hkern u1="&#x201e;" u2="v" k="45" />
<hkern u1="&#x201e;" u2="w" k="83" />
<hkern u1="&#x201e;" u2="&#xc5;" k="-38" />
<hkern u1="&#x201e;" u2="&#xc6;" k="-75" />
<hkern u1="&#x201e;" u2="&#xd8;" k="36" />
<hkern u1="&#x201e;" u2="&#x152;" k="36" />
<hkern u1="&#xd0;" u2="Y" k="36" />
<hkern u1="&#xd0;" u2="&#x201a;" k="149" />
<hkern u1="&#xd0;" u2="&#x201e;" k="149" />

</font>
</defs>
<text x="40" y="40" font-family="Futura BT W01 Cd X Black Italic" font-size="30" fill="#933" >ABCDEFGHIJKLMNOPQRSTUVWXYZ abcdefghijklmnopqrstuvwxyz AÁÀÂÄÅÃÆ CÇ DÐ EÉÈÊË I Í Ì Î Ï NÑ</text>
<text x="40" y="80" font-family="Futura BT W01 Cd X Black Italic" font-size="30" fill="#933" >OÓÒÔÖÕØŒ SŠ UÚÙÛÜ YÝŸ ZŽ Þ aáàâäåãæ cç dð eéèêë i ı í ì î ï nñ oóòôöõøœ sšß uúùûü yýÿ zž</text>
<text x="40" y="120" font-family="Futura BT W01 Cd X Black Italic" font-size="30" fill="#933" >þ 1234567890 ½ ¼ ¾ % ‰ $¢£¥ƒ€¤ † ‡ § ¶ # ^~µ +×± &lt; = &gt; ÷¬ !¡?¿ &quot; &amp; &apos; * ° . , : ; () [ \ ] {} / |</text>
<text x="40" y="160" font-family="Futura BT W01 Cd X Black Italic" font-size="30" fill="#933" >¦ _ ‚ „ … ‹› «» ‘ ’ “ ” • ­ - – — @ © ® ™ ªº ¹²³ ´ ` ˆ ˜ ¨ ¯ · ¸</text>
</svg>
